Id;LotArea;YearBuilt;YearRemodAdd;RoofStyle;GrLivArea;GarageCars;SalePrice
1;8450;2003;2003;Gable;1710;2;208500
2;9600;1976;1976;Gable;1262;2;181500
3;11250;2001;2002;Gable;1786;2;223500
4;9550;1915;1970;Gable;1717;3;140000
5;14260;2000;2000;Gable;2198;3;250000
6;14115;1993;1995;Gable;1362;2;143000
7;10084;2004;2005;Gable;1694;2;307000
8;10382;1973;1973;Gable;2090;2;200000
9;6120;1931;1950;Gable;1774;2;129900
10;7420;1939;1950;Gable;1077;1;118000
11;11200;1965;1965;Hip;1040;1;129500
12;11924;2005;2006;Hip;2324;3;345000
13;12968;1962;1962;Hip;912;1;144000
14;10652;2006;2007;Gable;1494;3;279500
15;10920;1960;1960;Hip;1253;1;157000
16;6120;1929;2001;Gable;854;2;132000
17;11241;1970;1970;Gable;1004;2;149000
18;10791;1967;1967;Gable;1296;2;90000
19;13695;2004;2004;Gable;1114;2;159000
20;7560;1958;1965;Hip;1339;1;139000
21;14215;2005;2006;Gable;2376;3;325300
22;7449;1930;1950;Gable;1108;1;139400
23;9742;2002;2002;Hip;1795;2;230000
24;4224;1976;1976;Gable;1060;2;129900
25;8246;1968;2001;Gable;1060;1;154000
26;14230;2007;2007;Gable;1600;3;256300
27;7200;1951;2000;Gable;900;2;134800
28;11478;2007;2008;Gable;1704;3;306000
29;16321;1957;1997;Gable;1600;1;207500
30;6324;1927;1950;Gable;520;1;68500
31;8500;1920;1950;Gambrel;1317;1;40000
32;8544;1966;2006;Gable;1228;1;149350
33;11049;2007;2007;Gable;1234;2;179900
34;10552;1959;1959;Hip;1700;2;165500
35;7313;2005;2005;Hip;1561;2;277500
36;13418;2004;2005;Gable;2452;3;309000
37;10859;1994;1995;Gable;1097;2;145000
38;8532;1954;1990;Hip;1297;2;153000
39;7922;1953;2007;Gable;1057;1;109000
40;6040;1955;1955;Gable;1152;0;82000
41;8658;1965;1965;Gable;1324;2;160000
42;16905;1959;1959;Gable;1328;1;170000
43;9180;1983;1983;Gable;884;2;144000
44;9200;1975;1980;Hip;938;1;130250
45;7945;1959;1959;Gable;1150;1;141000
46;7658;2005;2005;Hip;1752;2;319900
47;12822;2003;2003;Gable;2149;2;239686
48;11096;2006;2006;Gable;1656;3;249700
49;4456;1920;2008;Gable;1452;0;113000
50;7742;1966;1966;Gable;955;1;127000
51;13869;1997;1997;Gable;1470;2;177000
52;6240;1934;1950;Gable;1176;2;114500
53;8472;1963;1963;Gable;816;2;110000
54;50271;1981;1987;Gable;1842;3;385000
55;7134;1955;1955;Gable;1360;2;130000
56;10175;1964;1964;Gable;1425;2;180500
57;2645;1999;2000;Gable;1739;2;172500
58;11645;2004;2004;Gable;1720;2;196500
59;13682;2006;2006;Hip;2945;3;438780
60;7200;1972;1972;Gable;780;1;124900
61;13072;2004;2004;Gable;1158;2;158000
62;7200;1920;1996;Gable;1111;1;101000
63;6442;2006;2006;Gable;1370;2;202500
64;10300;1921;1950;Gable;1710;2;140000
65;9375;1997;1998;Gable;2034;2;219500
66;9591;2004;2005;Gable;2473;3;317000
67;19900;1970;1989;Gable;2207;2;180000
68;10665;2003;2003;Gable;1479;2;226000
69;4608;1945;1950;Gable;747;1;80000
70;15593;1953;1953;Gable;2287;2;225000
71;13651;1973;1973;Gable;2223;2;244000
72;7599;1982;2006;Gable;845;2;129500
73;10141;1998;1998;Gable;1718;2;185000
74;10200;1954;2003;Gable;1086;2;144900
75;5790;1915;1950;Gambrel;1605;1;107400
76;1596;1973;1973;Gable;988;1;91000
77;8475;1956;1956;Gable;952;1;135750
78;8635;1948;2001;Gable;1285;1;127000
79;10778;1968;1968;Hip;1768;0;136500
80;10440;1910;1981;Gable;1230;2;110000
81;13000;1968;1968;Gable;2142;1;193500
82;4500;1998;1998;Hip;1337;2;153500
83;10206;2007;2007;Gable;1563;3;245000
84;8892;1960;1960;Gable;1065;2;126500
85;8530;1995;1996;Gable;1474;2;168500
86;16059;1991;1992;Hip;2417;2;260000
87;11911;2005;2005;Gable;1560;2;174000
88;3951;2009;2009;Gable;1224;2;164500
89;8470;1915;1982;Hip;1526;0;85000
90;8070;1994;1995;Gable;990;0;123600
91;7200;1950;1950;Gable;1040;2;109900
92;8500;1961;1961;Hip;1235;2;98600
93;13360;1921;2006;Gable;964;2;163500
94;7200;1910;1998;Hip;2291;2;133900
95;9337;1997;1997;Gable;1786;2;204750
96;9765;1993;1993;Gable;1470;2;185000
97;10264;1999;1999;Gable;1588;2;214000
98;10921;1965;1965;Hip;960;1;94750
99;10625;1920;1950;Gable;835;1;83000
100;9320;1959;1959;Gable;1225;0;128950
101;10603;1977;2001;Gable;1610;2;205000
102;9206;1985;1985;Gable;1732;2;178000
103;7018;1979;1979;Gable;1535;2;118964
104;10402;2009;2009;Gable;1226;3;198900
105;7758;1931;1950;Gable;1818;1;169500
106;9375;2003;2004;Hip;1992;2;250000
107;10800;1885;1995;Mansard;1047;1;100000
108;6000;1948;1950;Gable;789;1;115000
109;8500;1919;2005;Gable;1517;0;115000
110;11751;1977;1977;Hip;1844;2;190000
111;9525;1954;1972;Gable;1855;1;136900
112;7750;2000;2000;Gable;1430;2;180000
113;9965;2007;2007;Gable;2696;3;383970
114;21000;1953;1953;Hip;2259;2;217000
115;7259;1945;2002;Gambrel;2320;1;259500
116;3230;1999;1999;Gable;1458;2;176000
117;11616;1962;1962;Gable;1092;1;139000
118;8536;2006;2007;Gable;1125;2;155000
119;12376;1990;1990;Hip;3222;3;320000
120;8461;2005;2006;Gable;1456;2;163990
121;21453;1969;1969;Flat;988;2;180000
122;6060;1939;1950;Gable;1123;1;100000
123;9464;1958;1958;Hip;1080;1;136000
124;7892;1993;1993;Gable;1199;2;153900
125;17043;1979;1998;Gable;1586;2;181000
126;6780;1935;1982;Gable;754;0;84500
127;4928;1976;1976;Gable;958;2;128000
128;4388;1930;1950;Gable;840;0;87000
129;7590;1966;1966;Gable;1348;2;155000
130;8973;1958;1991;Gable;1053;2;150000
131;14200;1966;1966;Gable;2157;2;226000
132;12224;2000;2000;Gable;2054;2;244000
133;7388;1959;2002;Gable;1327;2;150750
134;6853;2001;2002;Gable;1296;2;220000
135;10335;1968;1993;Gable;1721;2;180000
136;10400;1970;1970;Hip;1682;2;174000
137;10355;1967;1967;Gable;1214;1;143000
138;11070;1988;1989;Gable;1959;3;171000
139;9066;1999;2000;Gable;1852;3;230000
140;15426;1997;1997;Gable;1764;2;231500
141;10500;1971;1971;Gable;864;0;115000
142;11645;2005;2005;Gable;1734;2;260000
143;8520;1952;1952;Gable;1385;2;166000
144;10335;1999;1999;Gable;1501;2;204000
145;9100;1963;1963;Gable;1728;2;125000
146;2522;2004;2006;Gable;1709;2;130000
147;6120;1931;1993;Gable;875;1;105000
148;9505;2001;2001;Gable;2035;2;222500
149;7500;2004;2005;Gable;1080;0;141000
150;6240;1936;1950;Gable;1344;1;115000
151;10356;1975;1975;Gable;969;2;122000
152;13891;2007;2008;Hip;1710;3;372402
153;14803;1971;1971;Gable;1993;2;190000
154;13500;1960;1975;Flat;1252;2;235000
155;11340;1923;1950;Gable;1200;1;125000
156;9600;1924;1950;Gable;1096;0;79000
157;7200;1950;1950;Hip;1040;2;109500
158;12003;2009;2010;Gable;1968;3;269500
159;12552;2004;2005;Gable;1947;2;254900
160;19378;2005;2006;Gable;2462;2;320000
161;11120;1984;1984;Gable;1232;2;162500
162;13688;2003;2004;Gable;2668;3;412500
163;12182;2005;2005;Gable;1541;2;220000
164;5500;1956;1956;Gable;882;0;103200
165;5400;1926;2004;Gable;1616;1;152000
166;10106;1940;1999;Gable;1355;0;127500
167;10708;1955;1993;Hip;1867;1;190000
168;10562;2007;2007;Gable;2161;3;325624
169;8244;2004;2004;Gable;1720;2;183500
170;16669;1981;1981;Hip;1707;2;228000
171;12358;1941;1950;Gable;1382;2;128500
172;31770;1960;1960;Hip;1656;2;215000
173;5306;1987;1987;Gable;1767;2;239000
174;10197;1961;1961;Gable;1362;2;163000
175;12416;1986;1986;Gable;1651;2;184000
176;12615;1950;2001;Gable;2158;2;243000
177;10029;1988;1989;Gable;2060;2;211000
178;13650;1958;1958;Gable;1920;2;172500
179;17423;2008;2009;Hip;2234;3;501837
180;8520;1923;2006;Gable;968;2;100000
181;2117;2000;2000;Gable;1525;2;177000
182;7588;1920;1950;Gable;1802;1;200100
183;9060;1957;2006;Hip;1340;1;120000
184;11426;2003;2003;Gable;2082;2;200000
185;7438;1908;1991;Gable;1252;2;127000
186;22950;1892;1993;Gable;3608;3;475000
187;9947;1990;1991;Gable;1217;2;173000
188;10410;1916;1987;Gable;1656;1;135000
189;7018;1979;1979;Gable;1224;2;153337
190;4923;2001;2002;Gable;1593;2;286000
191;10570;1932;1994;Hip;2727;2;315000
192;7472;1972;2004;Gable;1479;2;184000
193;9017;1999;1999;Gable;1431;2;192000
194;2522;2004;2004;Gable;1709;2;130000
195;7180;1972;1972;Hip;864;1;127000
196;2280;1976;1976;Gable;1456;2;148500
197;9416;2007;2007;Hip;1726;3;311872
198;25419;1918;1990;Gable;3112;2;235000
199;5520;1912;1950;Gable;2229;0;104000
200;9591;2004;2005;Hip;1713;3;274900
201;8546;2003;2004;Gable;1121;2;140000
202;10125;1977;1977;Gable;1279;2;171500
203;7000;1924;1950;Gable;1310;1;112000
204;4438;2004;2004;Gable;848;2;149000
205;3500;1947;1950;Gable;1284;1;110000
206;11851;1990;1990;Gable;1442;2;180500
207;13673;1962;1962;Gable;1696;1;143900
208;12493;1960;1960;Gable;1100;1;141000
209;14364;1988;1989;Gable;2062;2;277000
210;8250;1964;1964;Hip;1092;2;145000
211;5604;1925;1950;Gable;864;0;98000
212;10420;2009;2009;Gable;1212;2;186000
213;8640;2009;2009;Gable;1852;2;252678
214;13568;1995;1995;Gable;990;2;156000
215;10900;1977;1977;Gable;1392;1;161750
216;10011;1957;1996;Gable;1236;1;134450
217;8450;2004;2004;Gable;1436;2;210000
218;9906;1925;1950;Gable;1328;1;107000
219;15660;1939;2006;Gable;1954;2;311500
220;3010;2005;2006;Gable;1248;2;167240
221;8990;2006;2006;Gable;1498;2;204900
222;8068;2002;2002;Gable;2267;2;200000
223;11475;1975;1975;Gable;1552;2;179900
224;10500;1971;1971;Gable;864;2;97000
225;13472;2003;2003;Hip;2392;3;386250
226;1680;1971;1971;Gable;1302;1;112000
227;9950;1995;1995;Gable;2520;3;290000
228;1869;1970;1970;Gable;987;1;106000
229;8521;1967;1967;Gable;912;1;125000
230;3182;2005;2006;Gable;1555;2;192500
231;8760;1959;1959;Hip;1194;1;148000
232;15138;1995;1996;Gable;2794;3;403000
233;1680;1972;1972;Gable;987;1;94500
234;10650;1976;1976;Gable;894;1;128200
235;7851;2002;2002;Gable;1960;2;216500
236;1680;1971;1971;Gable;987;1;89500
237;8773;2004;2004;Gable;1414;2;185500
238;9453;1993;2003;Gable;1744;2;194500
239;12030;2007;2007;Hip;1694;3;318000
240;8741;1945;1950;Gable;1487;1;113000
241;9000;2008;2008;Gable;1566;2;262500
242;3880;1945;1997;Gable;866;0;110500
243;5000;1900;1950;Gable;1440;1;79000
244;10762;1980;1980;Gable;1217;1;120000
245;8880;1994;2002;Gable;2110;2;205000
246;10400;1988;1988;Gable;1872;2;241500
247;9142;1910;1950;Gable;1928;1;137000
248;11310;1954;1954;Hip;1375;2;140000
249;11317;2003;2003;Gable;1668;2;180000
250;159000;1958;2006;Gable;2144;2;277000
251;5350;1940;1966;Gable;1306;0;76500
252;4750;2006;2007;Hip;1625;2;235000
253;8366;2004;2004;Gable;1640;2;173000
254;9350;1964;1991;Hip;1302;1;158000
255;8400;1957;1957;Gable;1314;1;145000
256;8738;1999;1999;Gable;2291;2;230000
257;8791;2003;2003;Gable;1728;2;207500
258;8814;2006;2006;Gable;1604;2;220000
259;12435;2001;2001;Gable;1792;2;231500
260;12702;1956;1956;Gable;882;1;97000
261;19296;1962;1962;Gable;1382;2;176000
262;9588;2007;2007;Gable;2574;3;276000
263;8471;1977;1995;Gable;1212;2;151000
264;5500;1929;2001;Gable;1316;2;130000
265;5232;1925;2004;Gable;764;2;73000
266;12090;1981;1981;Gable;1422;2;175500
267;11207;1997;1997;Gable;1511;2;185000
268;8400;1939;1997;Gable;2192;1;179500
269;6900;1940;1955;Gable;778;1;120500
270;7917;1976;1976;Hip;1113;1;148000
271;10728;2006;2006;Gable;1939;3;266000
272;39104;1954;2005;Flat;1363;2;241500
273;11764;1999;2007;Gable;2270;3;290000
274;9600;1958;1988;Hip;1632;1;139000
275;8314;1982;1982;Gable;816;1;124500
276;7264;1925;2007;Gable;1548;2;205000
277;9196;2003;2003;Gable;1560;2;201000
278;19138;1951;1951;Gable;864;2;141000
279;14450;2006;2007;Gable;2121;3;415298
280;10005;1977;1977;Hip;2022;2;192000
281;11287;1989;1989;Gable;1982;2;228500
282;7200;2006;2006;Gable;1262;2;185000
283;5063;2007;2008;Gable;1314;2;207500
284;9612;2008;2009;Gable;1468;3;244600
285;8012;1992;1992;Gable;1575;2;179200
286;4251;2006;2007;Gable;1250;2;164700
287;9786;1962;1981;Gable;1734;2;159000
288;8125;1971;1971;Gable;858;0;88000
289;9819;1967;1967;Gable;900;1;122000
290;8730;1915;2003;Gable;1396;1;153575
291;15611;2006;2006;Gable;1919;2;233230
292;5687;1912;2000;Gable;1716;0;135900
293;11409;1949;2008;Gable;1716;1;131000
294;16659;1977;1994;Gable;2263;2;235000
295;9600;1953;1953;Hip;1644;2;167000
296;7937;1984;1984;Gable;1003;2;142500
297;13710;1950;1950;Gable;1558;1;152000
298;7399;1997;1998;Hip;1950;2;239000
299;11700;1968;1968;Mansard;1743;2;175000
300;14000;1950;2004;Gable;1152;1;158500
301;15750;1953;1953;Hip;1336;1;157000
302;16226;1998;1999;Gable;2452;2;267000
303;13704;2001;2002;Gable;1541;3;205000
304;9800;1972;1972;Gable;894;2;149900
305;18386;1880;2002;Gable;3493;3;295000
306;10386;2004;2005;Gable;2000;3;305900
307;13474;1990;1991;Gable;2243;3;225000
308;7920;1920;1950;Gable;1406;0;89500
309;12342;1940;1950;Gable;861;2;82500
310;12378;2003;2004;Gable;1944;3;360000
311;7685;1993;1994;Gable;1501;2;165600
312;8000;1948;2002;Gable;972;1;132000
313;7800;1939;1950;Gable;1118;2;119900
314;215245;1965;1965;Hip;2036;2;375000
315;9600;1925;1990;Gable;1641;2;178000
316;7795;2004;2005;Gable;1432;2;188500
317;13005;1980;1980;Gable;2353;2;260000
318;9000;2006;2006;Gable;1959;3;270000
319;9900;1993;1993;Gable;2646;3;260000
320;14115;1980;1980;Gable;1472;2;187500
321;16259;2006;2006;Gable;2596;3;342643
322;12099;2004;2004;Gable;2468;3;354000
323;10380;1986;1987;Gable;2730;2;301000
324;5820;1955;2005;Gable;1163;1;126175
325;11275;1967;2007;Mansard;2978;2;242000
326;5000;1941;1950;Gable;803;2;87000
327;10846;1993;1993;Gable;1719;2;324000
328;11600;1960;1960;Hip;1383;1;145250
329;11888;1916;1994;Gable;2134;2;214500
330;6402;1920;1950;Gable;1192;1;78000
331;10624;1964;1964;Gable;1728;1;119000
332;8176;1958;1992;Gable;1056;1;139000
333;10655;2003;2004;Gable;1629;3;284000
334;8198;2004;2004;Gable;1358;2;207000
335;9042;1998;1998;Gable;1638;2;192000
336;164660;1965;1965;Gable;1786;2;228950
337;14157;2005;2006;Hip;1922;3;377426
338;9135;2002;2003;Gable;1536;2;214000
339;14145;1984;1998;Gable;1621;2;202500
340;12400;1958;1998;Hip;1215;1;155000
341;14191;2002;2002;Gable;1908;2;202900
342;8400;1950;1950;Gable;841;1;82000
343;8544;1949;1950;Gable;1040;2;87500
344;8849;2005;2005;Hip;1684;2;266000
345;2592;1976;1976;Gable;1112;1;85000
346;6435;1939;1950;Gable;1577;1;140200
347;12772;1960;1998;Hip;958;1;151500
348;17600;1960;1960;Gable;1478;2;157500
349;2448;2003;2004;Gable;1626;2;154000
350;20431;2005;2006;Hip;2728;3;437154
351;7820;2007;2007;Hip;1869;2;318061
352;5271;1986;1986;Gable;1453;2;190000
353;9084;1941;1950;Gable;1111;1;95000
354;8520;1928;2003;Gable;720;2;105900
355;8400;1940;2000;Gable;1595;1;140000
356;11249;1995;1995;Gable;1200;2;177500
357;9248;1992;1992;Gable;1167;2;173000
358;4224;1976;1976;Gable;1142;2;134000
359;6930;1958;1958;Hip;1352;1;130000
360;12011;1998;1998;Gable;1924;2;280000
361;7540;1978;1978;Gable;912;2;156000
362;9144;1940;1982;Gable;1505;1;145000
363;7301;2003;2003;Gable;1922;2;198500
364;1680;1972;2007;Gable;987;1;118000
365;18800;1976;1976;Gable;1574;2;190000
366;10690;1920;1997;Hip;1344;1;147000
367;9500;1963;1963;Gable;1394;2;159000
368;9150;1962;1962;Gable;1431;1;165000
369;7800;1954;1954;Gable;1268;1;132000
370;9830;1959;2006;Gable;1287;2;162000
371;8121;2000;2000;Gable;1664;2;172400
372;17120;1959;1959;Gable;1588;2;134432
373;7175;1984;1984;Gable;752;1;125000
374;10634;1953;1953;Gable;1319;1;123000
375;8200;2003;2004;Gable;1928;2;219500
376;10020;1922;1950;Gable;904;0;61000
377;8846;1996;1996;Gable;914;2;148000
378;11143;2004;2005;Gable;2466;2;340000
379;11394;2010;2010;Hip;1856;3;394432
380;8123;2000;2000;Gable;1800;2;179000
381;5000;1924;1950;Gable;1691;1;127000
382;7200;2006;2006;Gable;1301;2;187750
383;9245;2006;2006;Gable;1797;2;213500
384;9000;1928;1950;Gable;784;2;76000
385;53107;1992;1992;Gable;1953;2;240000
386;3182;2004;2005;Gable;1269;2;192000
387;8410;1910;1996;Gambrel;1184;0;81000
388;7200;1976;1976;Hip;1125;1;125000
389;9382;1999;2000;Gable;1479;2;191000
390;12474;2007;2008;Gable;2332;3;426000
391;8405;1900;1950;Gable;1367;1;119000
392;12209;2001;2002;Gable;1961;2;215000
393;8339;1959;1959;Gable;882;1;106500
394;7446;1941;1950;Gable;788;0;100000
395;10134;1940;1950;Gable;1034;1;109000
396;9571;1956;1956;Gable;1144;1;129000
397;7200;1972;1972;Hip;894;2;123000
398;7590;1962;1962;Gable;1812;1;169500
399;8967;1920;1950;Gable;1077;1;67000
400;8125;2006;2007;Gable;1550;2;241000
401;14963;1996;1996;Gable;1288;2;245500
402;8767;2005;2005;Gable;1310;2;164990
403;10200;1940;1997;Gable;672;1;108000
404;12090;1998;1998;Hip;2263;2;258000
405;10364;1995;1996;Gable;1572;2;168000
406;9991;1976;1993;Gable;1620;2;150000
407;10480;1936;1950;Gable;1639;1;115000
408;15576;1915;1976;Gable;1680;1;177000
409;14154;2006;2006;Gable;2172;3;280000
410;10800;2007;2008;Gable;2078;3;339750
411;9571;1958;1958;Gable;1276;1;60000
412;34650;1955;1955;Hip;1056;2;145000
413;4403;2009;2009;Gable;1478;2;222000
414;8960;1927;1950;Gable;1028;2;115000
415;11228;1993;1993;Gable;2097;3;228000
416;8899;2007;2007;Gable;1340;2;181134
417;7844;1978;1978;Hip;1400;2;149500
418;22420;1918;1950;Hip;2624;3;239000
419;8160;1940;1950;Gable;1134;1;126000
420;8450;1968;1968;Gable;1056;1;142000
421;7060;1997;1998;Gable;1344;4;206300
422;16635;1977;2000;Gable;1602;2;215000
423;21750;1954;1954;Hip;988;2;113000
424;9200;1998;1998;Gable;2630;3;315000
425;9000;1956;1956;Gable;1196;1;139000
426;3378;1946;1992;Gable;1389;1;135000
427;12800;1989;1989;Gable;1644;2;275000
428;8593;1957;1957;Hip;907;1;109008
429;6762;2007;2007;Gable;1208;2;195400
430;11457;1988;1988;Gable;1412;2;175000
431;1680;1971;1971;Gable;987;1;85400
432;5586;1920;1998;Gable;1198;0;79900
433;1920;1971;1971;Gable;1365;2;122500
434;10839;1997;1998;Gable;1604;2;181000
435;1890;1972;1972;Gable;630;0;81000
436;10667;1996;1996;Gable;1661;2;212000
437;4400;1920;1950;Gable;1118;2;116000
438;6000;1926;2004;Gable;904;1;119000
439;4280;1913;2002;Gable;694;1;90350
440;12354;1920;2000;Gable;1196;2;110000
441;15431;2008;2008;Hip;2402;3;555000
442;12108;1955;1955;Gable;1440;0;118000
443;6240;1930;1992;Gable;1573;2;162900
444;3922;2006;2007;Gable;1258;3;172500
445;8750;1994;1995;Gable;1908;2;210000
446;9855;1956;1956;Hip;1689;2;127500
447;16492;1966;2002;Gable;1888;2;190000
448;11214;1998;1999;Gable;1886;2;199900
449;8600;1937;1950;Gable;1376;1;119500
450;6000;1948;2002;Gable;1183;1;120000
451;5684;1930;2005;Hip;813;1;110000
452;70761;1975;1975;Gable;1533;2;280000
453;9303;1996;1997;Hip;1756;2;204000
454;9000;2008;2008;Gable;1590;2;210000
455;9297;1976;1976;Gable;1728;2;188000
456;9600;1973;1973;Hip;1242;2;175500
457;4571;1916;1950;Gable;1344;3;98000
458;53227;1954;1994;Flat;1663;2;256000
459;5100;1925;1996;Hip;1666;1;161000
460;7015;1950;1950;Gable;1203;1;110000
461;8004;2009;2009;Gable;1935;2;263435
462;7200;1936;2007;Gable;1135;2;155000
463;8281;1965;1965;Gable;864;1;62383
464;11988;1934;1995;Hip;1660;1;188700
465;8430;1978;1978;Gable;1040;0;124000
466;3072;2004;2004;Hip;1414;2;178740
467;10628;1970;1970;Flat;1277;2;167000
468;9480;1942;1995;Gable;1644;1;146500
469;11428;2006;2006;Gable;1634;3;250000
470;9291;1993;1993;Gable;1710;2;187000
471;6820;1985;1985;Gable;1502;2;212000
472;11952;1977;1977;Mansard;1969;2;190000
473;3675;2005;2005;Gable;1072;2;148000
474;14977;2006;2007;Gable;1976;3;440000
475;5330;2000;2000;Gable;1652;2;251000
476;8480;1963;1963;Hip;970;2;132500
477;13125;1997;1998;Gable;1493;2;208900
478;13693;2006;2006;Hip;2643;3;380000
479;10637;2007;2008;Hip;1718;3;297000
480;5925;1937;2000;Hip;1131;2;89471
481;16033;2004;2005;Hip;1850;3;326000
482;11846;2003;2004;Hip;1792;3;374000
483;2500;1915;2005;Gable;1826;1;155000
484;4500;1998;1998;Hip;1216;2;164000
485;7758;1962;2001;Gable;999;1;132500
486;9600;1950;2007;Gable;1113;1;147000
487;10289;1965;1965;Hip;1073;2;156000
488;12243;1971;1971;Gable;1484;2;175000
489;10800;1900;1970;Gable;2414;2;160000
490;1526;1970;2002;Gable;630;1;86000
491;2665;1976;1976;Gable;1304;1;115000
492;9490;1941;1950;Gable;1578;1;133000
493;15578;2006;2006;Gable;1456;2;172785
494;7931;1960;1960;Gable;1269;1;155000
495;5784;1938;1996;Gable;886;1;91300
496;7879;1920;1950;Gable;720;0;34900
497;12692;1992;1993;Hip;3228;2;430000
498;9120;1925;1950;Gable;1820;1;184000
499;7800;1967;2004;Hip;899;1;130000
500;7535;1958;1985;Gable;912;1;120000
501;1890;1973;1973;Gable;1218;1;113000
502;9803;2005;2005;Gable;1768;2;226700
503;9170;1965;1965;Hip;1214;2;140000
504;15602;1959;1997;Gable;1801;2;289000
505;2308;1974;1974;Gable;1322;2;147000
506;7596;1952;1952;Hip;1960;2;124500
507;9554;1993;1994;Gable;1911;2;215000
508;7862;2009;2009;Gable;1218;2;208300
509;9600;1928;2005;Gambrel;1378;2;161000
510;9600;1959;1959;Gable;1041;1;124500
511;14559;1951;2000;Hip;1363;1;164900
512;6792;2005;2006;Gable;1368;2;202665
513;9100;1958;1958;Gable;864;2;129900
514;9187;1983;1983;Gable;1080;2;134000
515;10594;1926;1950;Gable;789;1;96500
516;12220;2009;2009;Hip;2020;3;402861
517;10448;1972;1972;Gable;2119;2;158000
518;10208;1996;1997;Gable;2344;3;265000
519;9531;1998;1998;Gable;1796;2;211000
520;10918;1926;2004;Gambrel;2080;1;234000
521;10800;1900;2000;Gable;1294;0;106250
522;11988;1957;1957;Gable;1244;1;150000
523;5000;1947;1950;Gable;1664;2;159000
524;40094;2007;2008;Hip;4676;3;184750
525;11787;1996;1997;Gable;2398;3;315750
526;7500;2005;2005;Gable;1266;2;176000
527;13300;1956;2000;Hip;928;1;132000
528;14948;2008;2008;Hip;2713;3;446261
529;9098;1920;2002;Gable;605;0;86000
530;32668;1957;1975;Hip;2515;2;200624
531;10200;1988;1989;Gable;1509;2;175000
532;6155;1920;1999;Gable;1362;2;128000
533;7200;1955;2007;Gable;827;1;107500
534;5000;1946;1950;Gable;334;0;39300
535;9056;2004;2004;Gable;1414;2;178000
536;7000;1910;1991;Gable;1347;0;107500
537;8924;1998;1999;Gable;1724;2;188000
538;12735;1972;1972;Hip;864;2;111250
539;11553;1968;1968;Hip;1159;1;158000
540;11423;2001;2002;Gable;1601;2;272000
541;14601;2006;2006;Hip;1838;3;315000
542;11000;2000;2000;Gable;2285;3;248000
543;10140;1998;1999;Hip;1680;2;213250
544;4058;1998;1998;Gable;767;1;133000
545;17104;2006;2006;Gable;1496;2;179665
546;13837;1988;1988;Gable;2183;3;229000
547;8737;1923;1950;Gable;1635;2;210000
548;7244;1970;1970;Gable;768;2;129500
549;8235;1955;1995;Gable;825;2;125000
550;9375;2003;2004;Gable;2094;2;263000
551;4043;1977;1977;Gable;1069;2;140000
552;6000;1957;1957;Hip;928;1;112500
553;11146;2006;2006;Gable;1717;3;255500
554;8777;1949;2003;Gable;1126;2;108000
555;10625;2003;2004;Gable;2046;3;284000
556;6380;1922;1950;Gable;1048;1;113000
557;14850;1957;1957;Gable;1092;1;141000
558;11040;1920;1950;Gable;1336;1;108000
559;21872;1996;1997;Gable;1446;2;175000
560;3196;2003;2004;Gable;1557;2;234000
561;11341;1957;1996;Hip;1392;2;121500
562;10010;1974;1975;Gable;1389;2;170000
563;13907;1940;1969;Gable;996;0;108000
564;21780;1918;1950;Gable;1674;2;185000
565;13346;1992;2000;Gable;2295;2;268000
566;6858;1915;1950;Gable;1647;1;128000
567;11198;2005;2007;Hip;2504;3;325000
568;10171;2004;2004;Gable;1535;2;214000
569;12327;1983;2009;Gable;2132;2;316600
570;7032;1979;1979;Gable;943;2;135960
571;13101;1965;1965;Gable;1728;2;142600
572;7332;1959;1959;Gable;864;1;120000
573;13159;2009;2009;Gable;1692;2;224500
574;9967;2000;2000;Gable;1430;2;170000
575;10500;1971;2005;Gambrel;1109;1;139000
576;8480;1947;1950;Gable;1216;1;118500
577;6292;1928;1950;Gable;1477;1;145000
578;11777;1966;1966;Gable;1320;2;164500
579;3604;2007;2007;Gable;1392;2;146000
580;12150;1954;1954;Gable;1795;1;131500
581;14585;1960;1987;Gable;1429;2;181900
582;12704;2008;2009;Hip;2042;3;253293
583;11841;1990;1990;Gable;816;0;118500
584;13500;1893;2000;Gable;2775;2;325000
585;6120;1935;1995;Gable;1573;1;133000
586;11443;2005;2006;Hip;2028;3;369900
587;10267;1918;2000;Gable;838;1;130000
588;8740;1982;1982;Hip;860;2;137000
589;25095;1968;2003;Flat;1473;1;143000
590;9100;1930;1960;Gable;935;1;79500
591;8320;2004;2004;Gable;1582;2;185900
592;13478;2008;2008;Gable;2296;3;451950
593;6600;1982;2003;Gable;816;2;138000
594;4435;2003;2003;Gable;848;2;140000
595;7990;1975;1975;Hip;924;1;110000
596;11302;2005;2006;Gable;1826;3;319000
597;3600;1910;1993;Gable;1368;1;114504
598;3922;2006;2007;Gable;1402;3;194201
599;12984;1977;1977;Gable;1647;2;217500
600;1950;1980;1980;Gable;1556;2;151000
601;10927;2005;2005;Gable;1904;2;275000
602;9000;1937;1950;Gable;1375;1;141000
603;10041;1992;1992;Gable;1915;2;220000
604;3182;2004;2005;Gable;1200;2;151000
605;12803;2002;2002;Gable;1494;2;221000
606;13600;1965;1990;Gable;1986;2;205000
607;12464;1996;1996;Gable;1040;2;152000
608;7800;1948;2002;Gable;2008;1;225000
609;12168;1934;1998;Gable;3194;2;359100
610;7943;1961;1961;Gable;1029;1;118500
611;11050;2000;2000;Hip;2153;3;313000
612;10395;1978;1978;Gable;1032;2;148000
613;11885;2001;2001;Gable;1872;2;261500
614;8402;2007;2007;Gable;1120;0;147000
615;1491;1972;1972;Gable;630;0;75500
616;8800;1963;1963;Gable;1054;2;137500
617;7861;2002;2003;Gable;1509;2;183200
618;7227;1954;1954;Gable;832;2;105500
619;11694;2007;2007;Hip;1828;3;314813
620;12244;2003;2003;Hip;2262;3;305000
621;8248;1914;1950;Gable;864;0;67000
622;10800;1974;1997;Gable;2614;2;240000
623;7064;1977;1977;Gable;980;2;135000
624;2117;2000;2000;Gable;1512;2;168500
625;10400;1972;1972;Gable;1790;2;165150
626;10000;1962;1962;Hip;1116;2;160000
627;12342;1960;1978;Hip;1422;1;139900
628;9600;1955;1972;Gable;1520;1;153000
629;11606;1969;1969;Gable;2080;2;135000
630;9020;1964;1964;Gable;1350;2;168500
631;9000;1880;1991;Gable;1750;1;124000
632;4590;2006;2006;Gable;1554;2;209500
633;11900;1977;1977;Hip;1411;2;82500
634;9250;1954;2005;Gable;1056;1;139400
635;6979;1980;1980;Gable;1056;2;144000
636;10896;1914;1995;Hip;3395;0;200000
637;6120;1936;1950;Gable;800;0;60000
638;6000;1954;1954;Gable;1387;1;93000
639;8777;1910;1950;Gable;796;0;85000
640;3982;2006;2006;Hip;1567;3;264561
641;12677;2003;2004;Hip;1518;2;274000
642;7050;2001;2001;Gable;1929;2;226000
643;13860;1972;1995;Gable;2704;2;345000
644;10793;1969;1969;Mansard;1620;2;152000
645;9187;2009;2009;Gable;1766;3;370878
646;10530;1971;1971;Hip;981;2;143250
647;7200;1950;1950;Hip;1048;2;98300
648;10452;1953;1953;Hip;1094;2;155000
649;7700;1966;1966;Gable;1839;2;155000
650;1936;1970;1970;Gable;630;0;84500
651;8125;2007;2007;Gable;1665;2;205950
652;9084;1940;1950;Gable;1510;1;108000
653;8750;1996;1996;Gable;1716;2;191000
654;10320;1906;1995;Gable;1469;1;135000
655;10437;1995;1995;Hip;2113;3;350000
656;1680;1971;1971;Gable;1092;1;88000
657;10007;1959;2006;Gable;1053;1;145500
658;7200;1931;2000;Gable;1502;1;149000
659;17503;1948;1950;Gable;1458;1;97500
660;9937;1964;1999;Hip;1486;2;167000
661;12384;1976;1976;Gable;1935;2;197900
662;46589;1994;2005;Hip;2448;3;402000
663;13560;1968;1968;Hip;1392;2;110000
664;10012;1972;1972;Gable;1181;2;137500
665;20896;2005;2006;Gable;2097;3;423000
666;11194;2000;2000;Gable;1936;2;230500
667;18450;1965;1979;Flat;2380;2;129000
668;8125;1994;1998;Gable;1679;2;193500
669;14175;1956;1987;Gable;1437;2;168000
670;11600;1922;1950;Gable;1180;1;137500
671;8633;2005;2005;Gable;1476;2;173500
672;6629;1925;1950;Gambrel;1369;1;103600
673;11250;1977;1977;Gable;1208;2;165000
674;14442;1957;2004;Hip;1839;2;257500
675;9200;1965;1965;Gable;1136;1;140000
676;2289;1978;1978;Gable;1441;2;148500
677;9600;1900;1950;Gable;1774;3;87000
678;9022;1924;2006;Gable;792;1;109500
679;11844;2008;2008;Hip;2046;3;372500
680;9945;1961;1961;Hip;988;2;128500
681;8012;1980;1980;Gable;923;1;143000
682;4500;1932;2000;Gable;1520;1;159434
683;2887;1996;1997;Gable;1291;2;173000
684;11248;2002;2002;Hip;1668;3;285000
685;16770;1998;1998;Gable;1839;2;221000
686;5062;1984;1984;Gable;2090;2;207500
687;10207;2007;2007;Gable;1761;2;227875
688;5105;2004;2004;Gable;1102;2;148800
689;8089;2007;2007;Gable;1419;2;392000
690;7577;2005;2006;Gable;1362;2;194700
691;4426;2004;2004;Gable;848;2;141000
692;21535;1994;1995;Gable;4316;3;755000
693;26178;1989;1990;Hip;2519;2;335000
694;5400;1921;1968;Gable;1073;1;108480
695;6120;1936;1950;Gable;1539;2;141500
696;13811;1987;1987;Gable;1137;2;176000
697;6000;1921;1950;Gable;616;1;89000
698;6420;1952;1952;Gable;1148;1;123500
699;8450;1965;2009;Gable;894;1;138500
700;4282;2004;2004;Gable;1391;2;196000
701;14331;2002;2002;Hip;1800;3;312500
702;9600;1969;1969;Hip;1164;2;140000
703;12438;2006;2006;Hip;2576;3;361919
704;7630;1900;1996;Gable;1812;2;140000
705;8400;2004;2005;Gable;1484;2;213000
706;5600;1930;1950;Hip;1092;0;55000
707;115149;1971;2002;Gable;1824;2;302000
708;6240;2006;2006;Hip;1324;2;254000
709;9018;2007;2007;Hip;1456;2;179540
710;7162;1966;1966;Gable;904;1;109900
711;4130;1935;2003;Gable;729;0;52000
712;8712;1900;1950;Gable;1178;1;102776
713;4671;1988;1989;Gable;1228;2;189000
714;9873;1970;1970;Gable;960;2;129000
715;13517;1976;2005;Gable;1479;2;130500
716;10140;1974;1974;Hip;1350;2;165000
717;10800;1890;1998;Gable;2554;2;159500
718;10000;1973;2000;Gable;1178;2;157000
719;10542;1993;1994;Hip;2418;3;341000
720;9920;1969;1969;Gable;971;1;128500
721;6563;1985;1985;Gable;1742;2;275000
722;4426;2004;2004;Gable;848;2;143000
723;8120;1970;1970;Gable;864;2;124500
724;8172;1954;1972;Gable;1470;1;135000
725;13286;2007;2008;Hip;1698;3;320000
726;6960;1970;1970;Gable;864;2;120500
727;21695;1988;2007;Hip;1680;2;222000
728;7314;2007;2007;Gable;1232;2;194500
729;11475;1958;1958;Gable;1776;3;110000
730;6240;1925;1950;Gable;1208;2;103000
731;5389;1995;1996;Gable;1616;2;236500
732;9590;2003;2003;Gable;1146;2;187500
733;11404;1998;1999;Gable;2031;2;222500
734;10000;1961;1983;Hip;1144;1;131400
735;8978;1968;1968;Gable;948;1;108000
736;10800;1914;1970;Gable;1768;2;163000
737;8544;1950;1950;Gable;1040;2;93500
738;10463;2005;2005;Gable;1801;3;239900
739;10800;1987;1988;Gable;1200;0;179000
740;9313;2004;2004;Gable;1728;2;190000
741;9600;1910;2002;Gable;1432;2;132000
742;6768;1961;1996;Hip;912;1;142000
743;8450;2000;2001;Gable;1349;2;179000
744;12886;1963;1999;Gable;1464;2;175000
745;5395;1993;1993;Gable;1337;2;180000
746;8963;1976;1996;Hip;2715;2;299800
747;8795;2000;2000;Gable;2256;2;236000
748;11700;1880;2003;Mansard;2640;4;265979
749;10593;1996;1996;Hip;1720;2;260400
750;8405;1945;1950;Gable;1529;1;98000
751;8800;1910;2004;Gable;1140;0;96500
752;7750;2003;2003;Gable;1320;2;162000
753;9236;1997;1997;Gable;1494;2;217000
754;10240;2005;2005;Gable;2098;3;275500
755;7930;1969;2005;Gable;1026;2;156000
756;3230;1999;1999;Gable;1471;2;172500
757;10769;2007;2007;Gable;1768;2;212000
758;11616;1978;1978;Hip;1386;2;158900
759;2280;1999;1999;Gable;1501;2;179400
760;12257;1995;1995;Gable;2531;3;290000
761;9100;1959;1959;Hip;864;1;127500
762;6911;1924;1950;Gable;1301;2;100000
763;8640;2009;2009;Gable;1547;2;215200
764;9430;1999;1999;Gable;2365;3;337000
765;9549;1995;1996;Hip;1494;2;270000
766;14587;2008;2008;Gable;1506;2;264132
767;10421;1988;1988;Gable;1714;2;196500
768;12508;1940;1985;Gable;1750;1;160000
769;9100;2004;2005;Hip;1836;2;216837
770;53504;2003;2003;Hip;3279;3;538000
771;7252;1982;1982;Hip;858;2;134900
772;8877;1951;1951;Gable;1220;2;102000
773;7819;1976;1976;Gable;1117;2;107000
774;10150;1958;1958;Gable;912;1;114500
775;14226;2006;2006;Hip;1973;3;395000
776;4500;1998;1998;Hip;1204;2;162000
777;11210;2005;2006;Gable;1614;3;221500
778;13350;1974;1974;Hip;894;2;142500
779;8400;1977;1977;Gable;2020;2;144000
780;10530;1977;1977;Gable;1004;2;135000
781;7875;1995;1996;Gable;1253;2;176000
782;7153;1992;1992;Gable;1603;2;175900
783;16285;2001;2002;Gable;1430;2;187100
784;9101;1978;1978;Gable;1110;2;165500
785;6300;1914;2001;Gable;1484;0;128000
786;9790;1967;1967;Gable;1342;2;161500
787;10800;1915;1950;Gable;1652;1;139000
788;10142;2004;2004;Gable;2084;2;233000
789;6000;1954;2000;Gable;901;1;107900
790;12205;1966;2007;Gable;2087;2;187500
791;3182;2005;2006;Gable;1145;2;160200
792;11333;1976;1976;Gable;1062;2;146800
793;9920;1996;1997;Gable;2013;2;269790
794;9158;2007;2007;Gable;1496;2;225000
795;10832;1994;1996;Gable;1895;2;194500
796;8400;1980;1981;Gable;1564;2;171000
797;8197;1977;1977;Gable;1285;2;143500
798;7677;1953;1953;Gable;773;1;110000
799;13518;2008;2009;Hip;3140;3;485000
800;7200;1937;1950;Gable;1768;1;175000
801;12798;1997;1997;Gable;1688;2;200000
802;4800;1916;1990;Gable;1196;2;109900
803;8199;2005;2005;Gable;1456;2;189000
804;13891;2008;2009;Hip;2822;3;582933
805;9000;1954;1954;Gable;1128;1;118000
806;12274;2008;2008;Gable;1428;2;227680
807;9750;1967;1967;Gable;980;1;135500
808;21384;1923;2004;Gable;1576;2;223500
809;13400;1966;1966;Gable;1086;2;159950
810;8100;1898;1965;Hip;2138;2;106000
811;10140;1974;1999;Hip;1309;2;181000
812;4438;2004;2004;Gable;848;2;144500
813;8712;1952;1952;Hip;1044;2;55993
814;9750;1958;1958;Gable;1442;1;157900
815;8248;1918;1950;Gable;1250;1;116000
816;12137;1998;1998;Gable;1661;2;224900
817;11425;1954;1954;Gable;1008;1;137000
818;13265;2002;2002;Hip;1689;3;271000
819;8816;1971;1971;Gable;1052;2;155000
820;6371;2009;2010;Gable;1358;2;224000
821;7226;2003;2003;Gable;1640;2;183000
822;6000;1953;1953;Gable;936;2;93000
823;12394;2003;2003;Gable;1733;2;225000
824;9900;1940;1950;Gable;1489;1;139500
825;11216;2006;2006;Gable;1489;2;232600
826;14803;2007;2008;Hip;2084;3;385000
827;6130;1924;1950;Gable;784;0;109500
828;8529;2001;2001;Gable;1434;2;189000
829;28698;1967;1967;Flat;2126;2;185000
830;2544;2005;2005;Gable;1223;2;147400
831;11900;1957;1957;Gable;1392;2;166000
832;3180;2005;2005;Gable;1200;2;151000
833;9548;2003;2003;Gable;1829;2;237000
834;10004;1964;1964;Gable;1516;2;167000
835;7875;1961;1961;Gable;1144;2;139950
836;9600;1950;1995;Gable;1067;2;128000
837;8100;1948;1973;Gable;1559;2;153500
838;1680;1973;1973;Gable;987;1;100000
839;9525;1995;2006;Gable;1099;1;144000
840;11767;1946;1995;Gable;1200;1;130500
841;12155;1925;1950;Gable;1482;1;140000
842;10440;1904;2002;Gable;1539;2;157500
843;9020;1966;1966;Gable;1165;2;174900
844;8000;1961;1961;Gable;1800;0;141000
845;12665;1915;1950;Gable;1416;3;153900
846;16647;1975;1981;Gable;1701;2;171000
847;9317;1993;1993;Gable;1775;2;213000
848;15523;1972;1972;Gable;864;1;133500
849;45600;1908;1997;Gable;2358;2;240000
850;9600;1976;1994;Hip;1855;2;187000
851;4435;2003;2003;Gable;848;2;131500
852;3196;2003;2003;Gable;1456;2;215000
853;7128;1941;1950;Gable;1646;1;164000
854;12095;1964;1964;Gable;1445;2;158000
855;17920;1955;1974;Hip;1779;2;170000
856;6897;1962;2010;Gable;1040;1;127000
857;10970;1978;1978;Gable;1026;2;147000
858;8125;1994;1995;Gable;1481;2;174000
859;10400;1976;1976;Gable;1370;2;152000
860;11029;1968;1984;Gable;2654;2;250000
861;7642;1918;1998;Gable;1426;1;189950
862;11625;1965;1965;Hip;1039;2;131500
863;9672;1984;1985;Hip;1097;2;152000
864;7931;1959;1959;Hip;1148;1;132500
865;8640;2007;2008;Gable;1372;2;250580
866;8750;1970;1970;Gable;1002;2;148500
867;10656;2006;2007;Gable;1646;3;248900
868;6970;1961;1961;Gable;1120;2;129000
869;14762;1948;1950;Gable;2320;2;169000
870;9938;1993;1994;Gable;1949;2;236000
871;6600;1962;1962;Hip;894;1;109500
872;8750;1998;1998;Gable;1682;2;200500
873;8892;1953;1996;Gable;910;2;116000
874;12144;1949;1950;Gable;1268;1;133000
875;5720;1941;1950;Gable;1131;1;66500
876;9000;2007;2007;Gable;2610;2;303477
877;25286;1963;1963;Gable;1040;2;132250
878;8834;2004;2005;Hip;2224;3;350000
879;11782;1961;1995;Gable;1155;2;148000
880;7000;1978;2005;Gable;864;1;136500
881;7024;2005;2006;Gable;1090;2;157000
882;13758;1990;1991;Gable;1717;2;187500
883;9636;1992;1993;Gable;1593;2;178000
884;6204;1912;1950;Gable;2230;1;118500
885;7150;1967;1967;Gable;892;1;100000
886;5119;1999;2000;Gable;1709;2;328900
887;8393;1959;2005;Gable;1712;2;145000
888;16466;1955;1955;Gable;1393;1;135500
889;15865;1970;1970;Flat;2217;2;268000
890;12160;1953;1953;Hip;1505;2;149500
891;8064;1949;2006;Gable;924;2;122900
892;11184;1978;1978;Hip;1683;2;172500
893;8414;1963;2003;Hip;1068;1;154500
894;13284;1954;1954;Gable;1383;1;165000
895;7018;1979;1979;Gable;1535;2;118858
896;7056;1963;1963;Hip;1796;2;140000
897;8765;1936;1950;Gable;951;1;106500
898;7018;1979;1979;Gable;2240;2;142953
899;12919;2009;2010;Hip;2364;3;611657
900;6993;1961;1994;Gable;1236;1;135000
901;7340;1971;1971;Gable;858;1;110000
902;8712;1957;2000;Hip;1306;1;153000
903;7875;2003;2003;Gable;1509;2;180000
904;14859;2006;2006;Hip;1670;3;240000
905;6173;1967;1967;Gable;902;1;125500
906;9920;1954;1954;Gable;1063;1;128000
907;13501;2006;2006;Gable;1636;3;255000
908;11500;1936;1987;Gable;2057;1;250000
909;8885;1983;1983;Gable;902;2;131000
910;12589;2005;2005;Gable;1484;2;174000
911;11600;1960;1960;Gable;2274;2;154300
912;9286;1977;1989;Gable;1268;1;143500
913;6120;1925;1950;Gable;1015;1;88000
914;6270;1949;1950;Gable;2002;3;145000
915;3000;2009;2009;Gable;1224;2;173733
916;2001;1970;1970;Gable;1092;1;75000
917;9000;1949;1950;Gable;480;1;35311
918;17140;1956;1956;Gable;1229;1;135000
919;13125;1991;1991;Gable;2127;3;238000
920;11029;1958;2002;Hip;1414;2;176500
921;8462;1994;1994;Gable;1721;2;201000
922;8777;1900;2003;Gable;2200;0;145900
923;10237;2005;2006;Gable;1316;2;169990
924;8012;1993;1994;Gable;1617;2;193000
925;10240;1980;1980;Gable;1686;2;207500
926;15611;1977;1977;Gable;1126;2;175000
927;11999;2003;2004;Hip;2374;3;285000
928;9900;1968;1968;Gable;1978;2;176000
929;11838;2001;2001;Hip;1788;2;236500
930;13006;1997;1997;Gable;2236;2;222000
931;8925;2007;2007;Gable;1466;3;201000
932;9100;1965;1965;Gable;925;1;117500
933;11670;2006;2006;Hip;1905;3;320000
934;8487;2004;2004;Gable;1500;2;190000
935;27650;1960;2007;Flat;2069;2;242000
936;5825;1926;1953;Gable;747;2;79900
937;10083;2003;2003;Gable;1200;2;184900
938;9675;2005;2005;Gable;1971;2;253000
939;8760;2006;2006;Gable;1962;3;239799
940;24090;1940;1950;Gable;2403;1;244400
941;12640;1976;1976;Gable;1728;2;150900
942;8755;1999;1999;Gable;2060;2;214000
943;7711;1977;1977;Gable;1440;0;150000
944;25000;1967;1967;Gable;1632;2;143000
945;14375;1958;1958;Gable;1344;2;137500
946;8820;1890;1996;Hip;1869;2;124900
947;8163;1959;1959;Gable;1144;1;143000
948;14536;2002;2003;Hip;1629;3;270000
949;14006;2002;2002;Gable;1776;2;192500
950;9360;1972;2006;Hip;1381;2;197500
951;7200;1950;2002;Gable;864;2;129000
952;7800;1965;1965;Gable;965;1;119900
953;7200;1972;2003;Gable;768;1;133900
954;11075;1969;1969;Gable;1968;2;172000
955;9400;1975;1975;Flat;980;0;127500
956;7136;1946;1950;Gable;1958;2;145000
957;1300;1980;1980;Gable;1229;2;124000
958;7420;1962;1962;Hip;1057;2;132000
959;8450;2003;2003;Gable;1337;2;185000
960;2572;1999;1999;Hip;1416;2;155000
961;7207;1958;2008;Gable;858;0;116500
962;12227;1977;1995;Gable;2872;2;272000
963;2308;1976;1976;Gable;1548;2;155000
964;11923;2007;2007;Gable;1800;2;239000
965;11316;2002;2003;Gable;1894;2;214900
966;10237;2005;2007;Gable;1484;2;178900
967;9600;1940;1950;Gable;1308;1;160000
968;7390;1955;1955;Hip;1098;1;135000
969;5925;1910;1950;Gable;968;0;37900
970;10382;1958;1958;Hip;1095;1;140000
971;10800;1949;1950;Gable;1192;0;135000
972;2268;2003;2004;Gable;1626;2;173000
973;7892;1979;1979;Gable;918;1;99500
974;11639;2007;2008;Gable;1428;2;182000
975;11414;1910;1993;Gable;2019;2;167500
976;2651;2000;2000;Gable;1382;2;165000
977;5900;1923;1958;Gable;869;0;85500
978;4274;2006;2007;Gable;1241;2;199900
979;9450;1954;1954;Gable;894;2;110000
980;8816;1963;1963;Gable;1121;2;139000
981;12122;1961;2007;Gable;999;2;178400
982;12203;1998;1999;Hip;2612;3;336000
983;3182;2007;2007;Gable;1266;2;159895
984;11250;2002;2002;Gable;2290;2;255900
985;10125;1977;1977;Gable;1734;2;126000
986;10880;1950;1950;Gable;1164;1;125000
987;5310;1910;2003;Hip;1635;1;117000
988;10159;2009;2010;Hip;1940;3;395192
989;12046;1976;1976;Gable;2030;2;195000
990;8125;2006;2006;Gable;1576;2;197000
991;9452;1997;1998;Gable;2392;3;348000
992;17671;1882;1986;Gable;1742;2;168000
993;9760;1964;1993;Hip;1851;2;187000
994;8846;2005;2006;Gable;1500;2;173900
995;12456;2006;2007;Hip;1718;3;337500
996;4712;1946;1950;Gable;1230;1;121600
997;10659;1961;1961;Hip;1050;1;136500
998;11717;1970;1970;Hip;1442;2;185000
999;9786;1922;1950;Hip;1077;1;91000
1000;6762;2006;2006;Gable;1208;2;206000
1001;10206;1952;1952;Flat;944;2;82000
1002;5400;1920;1950;Gable;691;1;86000
1003;11957;2006;2006;Gable;1574;3;232000
1004;11500;1976;1976;Gable;1680;2;136905
1005;3182;2005;2006;Gable;1504;2;181000
1006;8385;1977;1977;Gable;985;1;149900
1007;12155;1970;1970;Gable;1657;2;163500
1008;2217;1970;1970;Gable;1092;1;88000
1009;12118;2004;2005;Hip;1710;2;240000
1010;6000;1926;1950;Gable;1522;0;102000
1011;21286;1948;1950;Gable;1271;1;135000
1012;9825;1965;1965;Hip;1664;0;100000
1013;10592;1923;1996;Hip;1502;1;165000
1014;7200;1910;2006;Hip;1022;1;85000
1015;11664;1948;1950;Gable;1082;1;119200
1016;8400;2001;2001;Gable;1665;2;227000
1017;11883;1996;1996;Hip;1504;2;203000
1018;5814;1984;1984;Gable;1360;2;187500
1019;10784;1991;1992;Gable;1472;2;160000
1020;3013;2005;2005;Gable;1506;2;213490
1021;7024;2005;2005;Gable;1132;2;176000
1022;7406;2006;2006;Gable;1220;2;194000
1023;9439;1930;1950;Gable;1248;1;87000
1024;3182;2005;2006;Gable;1504;2;191000
1025;15498;1976;1976;Hip;2898;2;287000
1026;7700;1972;1972;Gable;882;2;112500
1027;9300;1960;1960;Gable;1264;2;167500
1028;9520;2007;2008;Gable;1646;3;293077
1029;9492;1941;1950;Gable;1376;1;105000
1030;1680;1972;1972;Gable;1218;1;118000
1031;7082;1916;1995;Gable;1928;0;160000
1032;15863;1920;1970;Gable;3082;2;197000
1033;14541;1993;1993;Gable;2520;3;310000
1034;8125;2002;2002;Gable;1654;3;230000
1035;6305;1938;1950;Gable;954;1;119750
1036;11500;1957;1957;Gable;845;1;84000
1037;12898;2007;2008;Hip;1620;3;315500
1038;9240;2001;2002;Gable;2263;2;287000
1039;1533;1970;2008;Gable;1344;0;97000
1040;1477;1970;1970;Gable;630;1;80000
1041;13125;1957;2000;Gable;1803;2;155000
1042;9130;1966;2000;Hip;1632;2;173000
1043;5381;2005;2005;Gable;1306;2;196000
1044;11839;1990;1990;Hip;2329;2;262280
1045;9600;1981;1981;Hip;2524;2;278000
1046;13680;1955;1955;Hip;1733;2;139600
1047;16056;2005;2006;Hip;2868;3;556581
1048;9245;1994;1995;Gable;990;2;145000
1049;21750;1960;2006;Hip;1771;2;115000
1050;11100;1946;2006;Gable;930;1;84900
1051;8993;2007;2007;Gable;1302;2;176485
1052;11175;2007;2007;Gable;1316;2;200141
1053;9500;1964;1978;Gable;1977;2;165000
1054;8562;1957;2002;Hip;1526;1;144500
1055;11367;2002;2002;Gable;1989;2;255000
1056;11361;1976;1976;Gable;1523;2;180000
1057;7052;2005;2005;Gable;1364;2;185850
1058;29959;1994;1994;Gable;1850;2;248000
1059;11308;2008;2008;Gable;2184;3;335000
1060;11275;1932;1950;Gable;1991;2;220000
1061;4920;2001;2001;Gable;1338;2;213500
1062;18000;1935;1950;Gable;894;3;81000
1063;13600;1900;1950;Gable;2337;2;90000
1064;6000;1925;1980;Gable;1103;2;110500
1065;11000;1966;1966;Gable;1154;2;154000
1066;14000;1996;1997;Gable;2260;2;328000
1067;7837;1993;1994;Gable;1571;2;178000
1068;9760;1964;1964;Gable;1611;2;167900
1069;3964;1973;1973;Gable;2521;2;151400
1070;9600;1949;2003;Gable;893;2;135000
1071;10152;1956;1956;Hip;1048;1;135000
1072;11700;1968;1968;Gable;1556;2;154000
1073;7585;1948;1950;Gable;1456;1;91500
1074;7950;1977;1977;Hip;1426;2;159500
1075;8556;2006;2006;Gable;1240;3;194000
1076;13125;1940;1984;Gable;1740;1;219500
1077;10800;1936;1989;Gable;1466;2;170000
1078;15870;1969;1969;Gable;1096;1;138800
1079;4435;2004;2004;Gable;848;2;155900
1080;8775;1994;1994;Gable;990;1;126000
1081;11040;1971;2004;Gable;1258;2;145000
1082;7500;1963;1963;Gable;1040;1;133000
1083;8749;2002;2002;Gable;1459;2;192000
1084;8800;1964;1964;Hip;1251;1;160000
1085;13031;1995;1996;Gable;1498;2;187500
1086;9069;1992;1992;Gable;996;2;147000
1087;1974;1973;1973;Gable;1092;1;83500
1088;10574;2005;2006;Gable;1953;3;252000
1089;2522;2004;2004;Gable;1709;2;137500
1090;3316;2005;2005;Gable;1247;2;197000
1091;8544;1950;1950;Gable;1040;2;92900
1092;2160;1999;2000;Gable;1252;2;160000
1093;8400;1925;1950;Gable;1694;2;136500
1094;9230;1965;1998;Hip;1200;2;146000
1095;5868;1956;2000;Gable;936;1;129000
1096;9317;2006;2006;Gable;1314;2;176432
1097;6882;1914;2006;Gable;1355;0;127000
1098;3696;1986;1986;Gable;1088;2;170000
1099;6000;1936;1950;Gable;1324;1;128000
1100;11880;1978;1978;Gable;1601;2;157000
1101;8400;1920;1950;Gable;438;1;60000
1102;9758;1971;1971;Gable;950;1;119500
1103;7000;1960;2002;Gable;1134;1;135000
1104;8910;1959;1959;Hip;1194;2;159500
1105;2016;1970;1970;Gable;1302;2;106000
1106;12256;1994;1995;Gable;2622;2;325000
1107;10357;1990;1991;Hip;1442;2;179900
1108;23257;2006;2006;Gable;2021;2;274725
1109;8063;2000;2000;Gable;1690;2;181000
1110;11362;2004;2005;Gable;1836;3;280000
1111;8000;1995;1996;Gable;1658;2;188000
1112;10480;1976;1976;Hip;1964;2;205000
1113;7100;1957;1957;Gable;816;1;129900
1114;8923;1953;2006;Gable;1008;1;134500
1115;5400;1954;2000;Gable;833;1;117000
1116;12085;2007;2007;Hip;1734;3;318000
1117;7750;2002;2002;Hip;1419;2;184100
1118;9764;1967;2003;Gable;894;2;130000
1119;13825;1958;1987;Gable;1601;1;140000
1120;7560;1959;1959;Gable;1040;1;133700
1121;8263;1920;1950;Gable;1012;1;118400
1122;10084;2005;2006;Gable;1552;3;212900
1123;8926;1956;1956;Gable;960;1;112000
1124;9405;1947;2008;Hip;698;0;118000
1125;9125;1992;1992;Gable;1482;2;163900
1126;10434;1955;1955;Gable;1005;2;115000
1127;3684;2007;2007;Hip;1555;3;174000
1128;14572;2004;2004;Hip;1530;3;259000
1129;11796;2004;2005;Gable;1959;2;215000
1130;7200;1980;1980;Gable;936;2;140000
1131;7804;1928;1950;Gable;1981;2;135000
1132;10712;1991;1992;Gable;974;0;93500
1133;9900;1880;1950;Gable;2210;1;117500
1134;9828;1995;1995;Gable;2020;2;239500
1135;8773;1997;1997;Gable;1600;2;169000
1136;6180;1926;1950;Gable;986;1;102000
1137;9600;1950;1950;Gable;1252;1;119000
1138;6342;1875;1996;Gable;1020;0;94000
1139;9819;1977;1977;Gable;1567;2;196000
1140;8731;1920;1950;Gable;1167;2;144000
1141;7350;1951;1951;Gable;952;2;139000
1142;10304;1976;1976;Gable;1868;2;197500
1143;9965;2006;2007;Hip;2828;3;424870
1144;9000;1959;1959;Gable;1006;0;80000
1145;12180;1941;1950;Gable;924;1;80000
1146;6240;1928;1950;Gable;1576;1;149000
1147;11200;1985;1985;Gable;1298;2;180000
1148;12000;1941;1950;Gable;1564;1;174500
1149;5700;1926;1950;Gable;1111;1;116900
1150;9000;1920;1988;Hip;1482;2;143000
1151;8280;1950;1950;Gable;932;1;124000
1152;17755;1959;1959;Gable;1466;2;149900
1153;14115;1956;2004;Gable;1811;2;230000
1154;5890;1930;2007;Gable;816;1;120500
1155;13700;1965;1988;Gable;1820;2;201800
1156;10768;1976;2004;Gable;1437;2;218000
1157;9350;1965;1999;Gable;1265;2;179900
1158;5001;2007;2008;Gable;1314;2;230000
1159;11932;2007;2008;Gable;1580;3;235128
1160;9120;1974;1974;Hip;1876;2;185000
1161;2280;1978;1978;Gable;1456;2;146000
1162;14778;1954;2006;Hip;1640;2;224000
1163;8724;1968;1968;Gable;894;2;129000
1164;12900;1969;1969;Gable;1258;2;108959
1165;16157;1978;1978;Gable;1432;2;194000
1166;9541;2009;2009;Gable;1502;2;233170
1167;10475;2008;2008;Gable;1694;3;245350
1168;10852;2000;2000;Gable;1671;2;173000
1169;13728;1935;1986;Hip;2108;2;235000
1170;35760;1995;1996;Hip;3627;3;625000
1171;9880;1977;1977;Gable;1118;1;171000
1172;9120;1958;1958;Hip;1261;2;163000
1173;4017;2006;2007;Gable;1250;2;171900
1174;18030;1946;1994;Gable;3086;0;200500
1175;16560;1932;1950;Gable;2345;2;239000
1176;10678;1992;2000;Hip;2872;2;285000
1177;6951;1984;1985;Gable;923;1;119500
1178;3950;1926;2004;Gable;1224;1;115000
1179;7681;1921;1950;Gable;1343;1;154900
1180;8335;1954;1954;Gable;1124;0;93000
1181;11170;1990;1991;Gable;2514;2;250000
1182;5587;2008;2008;Hip;1652;2;392500
1183;15623;1996;1996;Hip;4476;3;745000
1184;10800;1920;1950;Hip;1130;2;120000
1185;35133;1963;1963;Hip;1572;3;186700
1186;9738;1924;1950;Gable;1221;1;104900
1187;10615;1900;1970;Gable;1699;2;95000
1188;12461;1994;1995;Gable;1624;3;262000
1189;8935;2002;2002;Gable;1660;2;195000
1190;7500;1999;1999;Gable;1804;2;189000
1191;32463;1961;1975;Gable;1622;4;168000
1192;2645;1999;2000;Gable;1441;2;174000
1193;9600;1925;1994;Gambrel;1472;1;125000
1194;4500;1999;1999;Hip;1224;2;165000
1195;9364;1969;1969;Gable;1352;1;158000
1196;8029;2005;2005;Gable;1456;2;176000
1197;14054;2006;2006;Gable;1863;3;219210
1198;8850;1916;1950;Gable;1690;1;144000
1199;9100;2001;2001;Gable;1212;2;178000
1200;11235;1963;1979;Gable;1382;2;148000
1201;9353;1970;1970;Gable;864;1;116050
1202;10400;1998;1998;Gable;1779;2;197900
1203;6000;1925;1997;Gable;1348;1;117000
1204;9750;2000;2001;Gable;1630;2;213000
1205;10140;1975;1975;Gable;1074;2;153500
1206;14684;1990;1991;Hip;2196;3;271900
1207;8900;1966;1966;Gable;1056;1;107000
1208;9135;2003;2003;Gable;1700;2;200000
1209;7763;1962;1980;Gable;1283;2;140000
1210;10182;2006;2006;Hip;1660;2;290000
1211;11218;1992;1992;Gable;1845;2;189000
1212;12134;1988;2005;Gable;1752;2;164000
1213;9340;1941;1950;Hip;672;1;113000
1214;10246;1965;2001;Gable;960;1;145000
1215;10205;1962;1962;Gable;999;1;134500
1216;7094;1966;1966;Gable;894;1;125000
1217;8930;1978;1978;Gable;1902;2;112000
1218;8640;2009;2009;Gable;1314;2;229456
1219;6240;1947;1950;Gable;912;0;80500
1220;1680;1971;1971;Gable;1218;0;91500
1221;7800;1964;1964;Gable;912;1;115000
1222;8250;1968;1968;Hip;1211;1;134000
1223;10496;1949;1950;Gable;1846;1;143000
1224;10680;1951;1951;Hip;2136;2;137900
1225;15384;2004;2005;Gable;1490;2;184000
1226;10482;1958;1958;Hip;1138;1;145000
1227;14598;2007;2007;Gable;1933;3;214000
1228;8872;1965;2008;Gable;912;2;147000
1229;8769;2008;2008;Hip;1702;3;367294
1230;7910;1960;1960;Hip;1507;1;127000
1231;18890;1977;1977;Gable;2620;2;190000
1232;7728;1962;1962;Hip;1190;2;132500
1233;9842;1962;1962;Gable;1224;2;101800
1234;12160;1959;1959;Hip;1188;2;142000
1235;8525;1911;1950;Gable;1964;0;130000
1236;13132;1914;1950;Gable;1784;1;138887
1237;2628;2003;2003;Gable;1626;2;175500
1238;12393;2004;2005;Gable;1948;2;195000
1239;13072;2005;2005;Gable;1141;2;142500
1240;9037;2006;2006;Hip;1484;2;265900
1241;8158;2003;2003;Gable;1768;2;224900
1242;9849;2007;2007;Hip;1689;3;248328
1243;10625;1974;1974;Gable;1173;2;170000
1244;13891;2006;2006;Gable;2076;3;465000
1245;11435;1929;1950;Gable;1517;2;230000
1246;12090;1984;2003;Hip;1868;2;178000
1247;8125;2005;2006;Gable;1553;2;186500
1248;12328;1976;1976;Gable;1034;3;169900
1249;9600;1917;1950;Gable;2058;2;129500
1250;7200;1950;1950;Gable;988;1;119000
1251;11160;1968;1968;Hip;2110;2;244000
1252;3136;2003;2003;Gable;1405;2;171750
1253;9858;1968;1968;Gable;874;1;130000
1254;17542;1974;2003;Gable;2167;2;294000
1255;6931;2003;2004;Gable;1656;2;165400
1256;6240;1931;1950;Gable;1367;1;127500
1257;14303;1994;1994;Hip;1987;2;301500
1258;4060;1922;1950;Gable;864;0;99900
1259;9587;2005;2005;Gable;1166;2;190000
1260;9750;1969;1969;Gable;1054;2;151000
1261;24682;1999;1999;Gable;1675;2;181000
1262;9600;1956;1956;Hip;1050;1;128900
1263;11250;1957;1989;Gable;1788;1;161500
1264;13515;1919;1950;Gambrel;1824;2;180500
1265;4060;1998;1999;Gable;1337;2;181000
1266;3735;1999;1999;Hip;1452;2;183900
1267;10120;1910;1950;Hip;1889;1;122000
1268;13214;2008;2009;Hip;2018;3;378500
1269;14100;1935;1997;Gable;3447;3;381000
1270;11344;1958;1958;Gable;1524;1;144000
1271;23595;1979;1979;Gable;1524;2;260000
1272;9156;1968;1968;Hip;1489;2;185750
1273;13526;1965;1965;Hip;935;1;137000
1274;11512;1959;2006;Gable;1357;1;177000
1275;5362;1910;2003;Gable;1250;2;139000
1276;11345;1948;1950;Gable;1920;2;137000
1277;12936;1972;1972;Gable;1395;2;162000
1278;17871;1967;1976;Gable;1724;2;197900
1279;9473;2002;2002;Gable;2031;2;237000
1280;7500;1920;1950;Gable;1128;2;68400
1281;9808;2002;2002;Gable;1573;2;227000
1282;8049;1990;1990;Hip;1339;2;180000
1283;8800;1977;2008;Gable;1040;2;150500
1284;9400;1971;1971;Mansard;1824;0;139000
1285;9638;1919;1990;Gable;2447;1;169000
1286;6000;1939;1950;Gable;1412;1;132500
1287;9790;1963;1963;Hip;1328;2;143000
1288;36500;1964;1964;Gable;1582;2;190000
1289;5664;2000;2000;Gable;1659;2;278000
1290;11065;2006;2006;Gable;1970;3;281000
1291;14112;1964;1964;Hip;1152;2;180500
1292;1680;1972;1972;Gable;1302;1;119500
1293;6600;1892;1965;Gable;2372;1;107500
1294;10140;1976;1976;Gable;1664;2;162900
1295;8172;1955;1990;Hip;864;2;115000
1296;8400;1968;1968;Hip;1052;1;138500
1297;8700;1963;1963;Hip;1128;2;155000
1298;3675;2005;2006;Gable;1072;2;140000
1299;63887;2008;2008;Hip;5642;2;160000
1300;7500;1959;1994;Hip;1246;1;154000
1301;10762;1999;1999;Gable;1983;2;225000
1302;7500;1942;1950;Gable;1494;1;177500
1303;10120;1994;1994;Hip;2526;3;290000
1304;8688;2005;2005;Gable;1616;3;232000
1305;3363;2004;2004;Gable;1708;2;130000
1306;13173;2006;2007;Hip;1652;2;325000
1307;6955;2005;2006;Gable;1368;2;202500
1308;8072;1994;1995;Gable;990;2;138000
1309;12000;1948;2005;Gable;1122;2;147000
1310;7153;1991;1991;Gable;1294;2;179200
1311;17500;1959;2002;Gable;1902;2;335000
1312;8814;2005;2007;Gable;1274;2;203000
1313;9572;1990;1990;Gable;2810;2;302000
1314;14774;1999;1999;Gable;2599;3;333168
1315;8190;1954;1954;Hip;948;1;119000
1316;11075;1969;1969;Gable;2112;2;206900
1317;10226;2008;2008;Gable;1630;3;295493
1318;4230;2006;2007;Gable;1352;2;208900
1319;14781;2001;2002;Hip;1787;3;275000
1320;10215;1954;1954;Hip;948;1;111000
1321;8400;1957;1957;Hip;1478;2;156500
1322;6627;1949;1950;Hip;720;1;72500
1323;10186;1992;1992;Gable;1923;2;190000
1324;5330;1940;1950;Hip;708;0;82500
1325;9986;2006;2007;Gable;1795;3;147000
1326;3636;1922;1950;Gable;796;0;55000
1327;4270;1931;2006;Gable;774;0;79000
1328;6600;1982;2008;Gable;816;1;130500
1329;10440;1920;1950;Gable;2792;2;256000
1330;9084;1998;1998;Hip;1632;2;176500
1331;10000;2006;2006;Hip;1588;3;227000
1332;10780;1976;1976;Gable;954;2;132500
1333;8877;1938;1958;Gable;816;1;100000
1334;7200;1938;1995;Gable;1360;1;125500
1335;2368;1970;1970;Gable;1365;2;125000
1336;9650;1977;1977;Gable;1334;2;167900
1337;9246;1973;1973;Gable;1656;2;135000
1338;4118;1941;1950;Gable;693;0;52500
1339;13450;2002;2002;Gable;1861;2;200000
1340;9560;1972;1972;Hip;864;1;128500
1341;8294;1971;1971;Gable;872;4;123000
1342;13695;2003;2004;Gable;1114;2;155000
1343;9375;2002;2002;Gable;2169;2;228500
1344;7558;1928;1950;Gable;1913;2;177000
1345;11103;2006;2006;Gable;1456;2;155835
1346;6000;1920;1950;Hip;960;1;108500
1347;20781;1968;2003;Hip;2156;2;262500
1348;15306;2006;2007;Gable;1776;3;283463
1349;16196;1998;1998;Gable;1494;2;215000
1350;5250;1872;1987;Gable;2358;0;122000
1351;11643;1969;1969;Gable;2634;4;200000
1352;9247;1962;1962;Gable;1716;2;171000
1353;6000;1937;2000;Gable;1176;2;134900
1354;14720;1995;1996;Hip;3238;3;410000
1355;10316;2000;2000;Gable;1865;3;235000
1356;10192;1968;1992;Gable;1920;2;170000
1357;9477;1966;1966;Gable;892;1;110000
1358;12537;1971;2008;Gable;1078;2;149900
1359;2117;2000;2000;Gable;1573;2;177500
1360;16737;2004;2005;Hip;1980;3;315000
1361;9842;1921;1998;Gable;2601;2;189000
1362;16158;2005;2005;Hip;1530;2;260000
1363;12513;1920;2007;Gable;1738;1;104900
1364;8499;2006;2007;Gable;1412;2;156932
1365;3180;2005;2005;Gable;1200;2;144152
1366;7500;2000;2000;Gable;1674;2;216000
1367;9179;1999;1999;Gable;1790;2;193000
1368;2665;1977;1977;Gable;1475;1;127000
1369;4435;2003;2004;Gable;848;2;144000
1370;10635;2003;2003;Hip;1668;2;232000
1371;5400;1920;1950;Gable;1374;1;105000
1372;9600;1955;1996;Hip;1661;1;165500
1373;9750;1998;1998;Gable;2097;2;274300
1374;11400;2001;2002;Hip;2633;3;466500
1375;10625;2005;2005;Gable;1958;3;250000
1376;10991;2007;2007;Gable;1571;3;239000
1377;6292;1930;1950;Gable;790;1;91000
1378;10998;1941;1960;Gable;1604;2;117000
1379;1953;1973;1973;Gable;987;1;83000
1380;9735;2006;2007;Gable;1394;2;167500
1381;8212;1914;1950;Gable;864;1;58500
1382;12925;1970;1970;Gable;2117;2;237500
1383;7200;1920;1950;Hip;1762;2;157000
1384;25339;1918;2007;Gable;1416;2;112000
1385;9060;1939;1950;Gable;1258;1;105000
1386;5436;1922;2007;Gable;1154;1;125500
1387;16692;1978;1978;Gable;2784;2;250000
1388;8520;1916;1950;Gable;2526;1;136000
1389;14892;2006;2007;Gable;1746;3;377500
1390;6000;1941;1950;Gable;1218;2;131000
1391;9100;2000;2000;Gable;1525;2;235000
1392;8944;1967;1967;Gable;1584;3;124000
1393;7838;1967;1967;Gable;900;1;123000
1394;10800;1905;2000;Gable;1912;2;163000
1395;4045;2006;2006;Hip;1500;3;246578
1396;12665;2005;2006;Hip;2482;3;281213
1397;57200;1948;1950;Gable;1687;2;160000
1398;6120;1920;2004;Gable;1513;1;137500
1399;7200;1950;1982;Gable;1904;1;138000
1400;6171;1925;1990;Gable;1608;1;137450
1401;6000;1929;1950;Gable;1158;1;120000
1402;7415;2004;2004;Gable;1593;2;193000
1403;6762;2006;2006;Gable;1294;2;193879
1404;15256;2007;2007;Gable;1464;3;282922
1405;10410;1915;1950;Gable;1214;3;105000
1406;3842;2004;2005;Hip;1646;2;275000
1407;8445;1972;2007;Gable;768;2;133000
1408;8780;1985;1985;Gable;833;0;112000
1409;7740;1910;1950;Gable;1363;2;125500
1410;20544;1986;1991;Gable;2093;2;215000
1411;12420;2001;2001;Gable;1840;2;230000
1412;9600;1950;2005;Gable;1668;1;140000
1413;7200;1949;1950;Gable;1040;2;90000
1414;10994;2005;2006;Gable;1844;2;257000
1415;13053;1923;2000;Gambrel;1848;2;207000
1416;3635;2007;2007;Hip;1569;3;175900
1417;11340;1885;1950;Gable;2290;2;122500
1418;16545;1998;1998;Gable;2450;3;340000
1419;9204;1963;1963;Gable;1144;1;124000
1420;16381;1969;1969;Gable;1844;2;223000
1421;11700;1968;1968;Gable;1416;2;179900
1422;4043;1977;1977;Gable;1069;2;127500
1423;4435;2003;2003;Gable;848;2;136500
1424;19690;1966;1966;Flat;2201;2;274970
1425;9503;1958;1983;Hip;1344;1;144000
1426;10721;1959;1959;Hip;1252;2;142000
1427;10944;1994;1994;Gable;2127;2;271000
1428;10930;1945;1950;Gable;1558;1;140000
1429;7200;1940;1992;Gable;804;1;119000
1430;12546;1981;1981;Gable;1440;2;182900
1431;21930;2005;2005;Gable;1838;2;192140
1432;4928;1976;1976;Gable;958;2;143750
1433;10800;1927;2007;Gable;968;1;64500
1434;10261;2000;2000;Gable;1792;2;186500
1435;17400;1977;1977;Gable;1126;2;160000
1436;8400;1962;2005;Gable;1537;2;174000
1437;9000;1971;1971;Gable;864;2;120500
1438;12444;2008;2008;Hip;1932;3;394617
1439;7407;1957;1996;Gable;1236;2;149700
1440;11584;1979;1979;Hip;1725;2;197000
1441;11526;1922;1994;Gable;2555;2;191000
1442;4426;2004;2004;Gable;848;2;149300
1443;11003;2008;2008;Gable;2007;3;310000
1444;8854;1916;1950;Gable;952;1;121000
1445;8500;2004;2004;Gable;1422;2;179600
1446;8400;1966;1966;Gable;913;1;129000
1447;26142;1962;1962;Gable;1188;1;157900
1448;10000;1995;1996;Gable;2090;2;240000
1449;11767;1910;2000;Gable;1346;1;112000
1450;1533;1970;1970;Gable;630;0;92000
1451;9000;1974;1974;Gable;1792;0;136000
1452;9262;2008;2009;Gable;1578;3;287090
1453;3675;2005;2005;Gable;1072;2;145000
1454;17217;2006;2006;Gable;1140;0;84500
1455;7500;2004;2005;Gable;1221;2;185000
1456;7917;1999;2000;Gable;1647;2;175000
1457;13175;1978;1988;Gable;2073;2;210000
1458;9042;1941;2006;Gable;2340;1;266500
1459;9717;1950;1996;Hip;1078;1;142125
1460;9937;1965;1965;Gable;1256;1;147500