"","ShipCateg","ShipBrand","ShipPower","ShipBuildYear","ShipHull","ShipLength","ShipTonnage","InsuredValue","ClaimCharge"
"1","Filer","PERKINS",133,1998,"Alluminium alloy",6.3,6.6,425.4,1.4
"3","Troller","DEUTZ",443,1979,"Polyester",6.7,14.2,390.4,0.6
"4","Trawler","Cummins",266,1965,"Wood",6.4,10.1,177.2,2.7
"5","Crab boat","BONI VALMET",145,1969,"Wood",5.2,4.2,119.6,1.5
"9","Trawler","MERCEDES",248,1963,"Wood",6.4,11.2,248.1,6.8
"11","Passenger vessel","Volvo",372,1995,"Wood",8.4,26.8,636.3,3.3
"12","Troller","YAMAHA",284,1999,"Polyester",5.4,4.5,354.5,1.4
"13","Crab boat","Cummins",106,1988,"Alluminium alloy",3.7,2.4,81.5,2.8
"14","Filer","Cummins",425,1996,"Polyester",5.4,4.1,248.1,4.2
"15","Trawler","Cummins",798,1980,"Steel",10.2,66.4,810,3.6
"16","Filer","CATERPILLAR",160,1991,"Polyester",3.9,0.9,230.4,3.2
"17","Crab boat","Nanni",151,1960,"Polyester",5.5,4.5,179.9,0.9
"18","Filer","Iveco",372,1981,"Alluminium alloy",13.7,186.6,1891.4,1
"20","Troller","CATERPILLAR",390,1986,"Alluminium alloy",6.3,5.2,0,7
"21","Passenger vessel","Volvo",532,1997,"Polyester",6.2,10.3,150.7,3.6
"23","Passenger vessel","YAMAHA",154,1996,"Polyester",14.6,38.9,967.8,1
"25","Filer","TOHATSU",532,1977,"Polyester",10.1,56.2,621.5,209.4
"28","Trawler","Iveco",762,1978,"Steel",10.6,66.3,1352.4,4.3
"29","Trawler","SUZUKI",585,1981,"Polyester",10.2,67,1080.8,84.8
"30","Trawler","Nanni",319,1976,"Wood",6.6,14,448.4,2.5
"31","Trawler","PERKINS",620,1975,"Wood",8.4,23.2,354.5,0.7
"32","Filer","Cummins",354,1981,"Polyester",7.7,15.5,531.7,4.8
"34","Crab boat","Cummins",213,1956,"Wood",5.1,5,106.3,1.1
"35","Filer","MARINER",266,1978,"Polyester",6.3,3.1,407.7,5.9
"38","Trawler","YANMAR",780,1967,"Steel",12.5,93,762.2,20.3
"39","Filer","BONI VALMET",266,1971,"Polyester",6.6,4.8,203.8,1.1
"40","Filer","Cummins",532,1997,"Polyester",7.7,13,726.7,116.5
"43","Crab boat","CATERPILLAR",142,1966,"Wood",5.1,4.3,113.1,4.1
"46","Trawler","Cummins",106,1972,"Wood",5.3,2.1,0,0.4
"47","Trawler","Nanni",461,1977,"Wood",6.4,11.8,372.2,0.8
"48","Fishing vessel","BAUDOUIN",89,1980,"Alluminium alloy",3.5,1.4,44.3,8.5
"49","Fishing vessel","POYAUD",266,1960,"Wood",6.1,3.1,141.8,0.8
"50","Trawler","Volvo",177,1978,"Wood",7.2,9.4,265.9,13.2
"51","Trawler","Mitsubishi",762,1974,"Steel",13,116.7,0,0
"53","Trawler","HONDA",399,1971,"Polyester",8.3,21.3,540.4,7.1
"55","Trawler","BAUDOUIN",319,1969,"Polyester",6.8,14.1,443.1,6.9
"58","Speedboat","Cummins",354,1977,"Polyester",6,14.3,117,4.8
"59","Trawler","SCANIA",354,1978,"Wood",7.7,14,810.6,259.2
"60","Filer","BAUDOUIN",142,1995,"Polyester",5.4,4.1,273,0.8
"61","Trawler","Volvo",337,1981,"Wood",7.5,12,0,610.2
"62","Crab boat","BAUDOUIN",266,1973,"Alluminium alloy",5.8,9.1,0,0.9
"63","Trawler","BAUDOUIN",266,1961,"Wood",7.6,13.3,354.5,21.7
"64","Filer","BAUDOUIN",425,1973,"Polyester",7.7,24.4,354.5,4.7
"66","Trawler","YAMAHA",1063,1976,"Steel",16,197.7,0,8.1
"69","Trawler","YAMAHA",349,1969,"Polyester",6.3,7.3,212.7,0.8
"70","Trawler","SCANIA",978,1979,"Steel",15.9,190.2,1772.5,18.7
"72","Passenger vessel","BAUDOUIN",230,1980,"Polyester",5.3,7.8,83.3,2.4
"73","Filer","Cummins",195,1997,"Steel",7.2,20.5,797.6,27.4
"74","Troller","BAUDOUIN",266,1961,"Wood",5.4,6.2,0,6.5
"75","Trawler","CATERPILLAR",390,1980,"Steel",10.2,41.6,810.6,3
"76","Trawler","Iveco",417,1991,"Polyester",7,14.7,620.4,1.2
"78","Crab boat","Iveco",151,1960,"Polyester",5.5,4.5,179.9,0.7
"79","Monohull","Iveco",151,1967,"Wood",8,20.1,241.1,6.5
"81","Filer","PERKINS",638,1974,"Wood",9.5,35.9,567.2,1.2
"84","Trawler","Cummins",266,1990,"Polyester",6.3,10.1,216.2,1.9
"85","Filer","PERKINS",422,1978,"Polyester",7.7,24,486.4,1.2
"86","Filer","MERCURY",443,1987,"Polyester",5.9,4.9,0,2.2
"87","Crab boat","Cummins",174,1966,"Wood",5.6,3,106.3,0.9
"91","Trawler","BAUDOUIN",762,1978,"Steel",10.6,66.3,1352.4,2.8
"92","Filer","BAUDOUIN",688,1978,"Polyester",7.7,10.1,8862.3,1.4
"93","Crab boat","BAUDOUIN",331,1969,"Polyester",5.8,4.8,177.2,0.8
"94","Crab boat","Iveco",204,1978,"Alluminium alloy",4.3,1.7,70.9,0.7
"95","Coast catamaran","BAUDOUIN",443,1989,"Alluminium alloy",7.6,12.3,88.6,10.4
"96","Trawler","BAUDOUIN",1778,2001,"Steel",15.4,215.4,4431.1,6.2
"97","Trawler","BONI VALMET",213,1969,"Wood",6.3,10.8,0,6.2
"98","Troller","BAUDOUIN",532,1985,"Polyester",6.8,6.4,332.5,0
"99","Trawler","Volvo",261,1970,"Wood",7.3,9.7,324.3,333
"101","Trawler","BAUDOUIN",709,1975,"Steel",11.2,80.6,1107.9,27.9
"102","Troller","Cummins",266,1976,"Polyester",4.5,2,124.1,1.4
"103","Filer","Iveco",106,1977,"Polyester",3.5,1.9,53.2,1.4
"104","Trawler","YAMAHA",425,1989,"Polyester",7.6,26.9,1276.2,2
"105","Troller","CATERPILLAR",328,1999,"Polyester",5.4,4.2,319,1.3
"106","Filer","CATERPILLAR",186,1979,"Steel",7.6,13.3,513.4,7.2
"107","Trawler","BAUDOUIN",509,1969,"Wood",10.3,50.8,1210.8,4.5
"109","Crab boat","MAN",310,1974,"Alluminium alloy",6.3,9.3,212.7,1.1
"110","Shellfish boat","SUZUKI",257,2001,"Steel",7.6,21,0,0.5
"111","Filer","Cummins",780,1985,"Polyester",7.7,12.5,584.9,34.8
"113","Trawler","BAUDOUIN",1042,1990,"Steel",17.9,349.8,1329.3,14.5
"114","Monohull","CATERPILLAR",151,1967,"Wood",8,20.1,241.1,0.3
"115","Crab boat","YAMAHA",145,1969,"Wood",5.2,4.2,119.6,0.7
"116","Trawler","BAUDOUIN",532,1967,"Polyester",9.4,44,549.5,4.7
"117","Troller","Iveco",239,1978,"Polyester",5,2.1,124.1,0.7
"118","Trawler","Cummins",1063,1976,"Steel",16,197.7,0,21.2
"121","Trawler","MERCURY",638,1976,"Wood",11.4,76,974.8,30.1
"122","Troller","Volvo",443,1977,"Polyester",7,7.2,0,1.4
"123","Filer","Volvo",780,1973,"Polyester",10,26.6,540.6,2.2
"126","Trawler","Iveco",564,1978,"Steel",9.2,45.8,886.2,1.8
"127","Trawler","SCANIA",509,1984,"Wood",10.1,34.5,709,7.8
"129","Filer","BAUDOUIN",266,1974,"Wood",5.4,5.1,53.2,4.5
"130","Troller","BAUDOUIN",160,1985,"Polyester",3.9,2,70.9,12.8
"131","Trawler","BAUDOUIN",213,1955,"Wood",6.3,6.4,177.2,2.8
"132","Dredger","CATERPILLAR",133,1975,"Wood",5.8,8.2,195,3.7
"133","Filer","Iveco",443,1987,"Polyester",5.9,4.9,0,13.3
"134","Filer","Cummins",425,1976,"Polyester",4.5,4.2,53.2,0.5
"135","Trawler","BAUDOUIN",1772,1979,"Steel",21,231.8,1152.1,0
"136","Trawler","Iveco",1772,1978,"Steel",21,231.8,1152.1,0
"138","Trawler","Iveco",762,1978,"Steel",10.6,66.3,0,16.3
"139","Trawler","Iveco",558,1980,"Steel",10.2,76.9,0,3
"140","Trawler","BAUDOUIN",223,1970,"Wood",6.7,10.9,230.4,0.8
"141","Filer","CATERPILLAR",106,1977,"Wood",4.6,4.6,97.5,1
"142","Trawler","POYAUD",177,1962,"Wood",6.7,11.5,203.8,5.7
"144","Trawler","CATERPILLAR",798,1995,"Steel",13.5,133.4,3242.5,24.8
"145","Trawler","YAMAHA",581,1976,"Wood",9.2,37.1,0,1.7
"146","Filer","Cummins",372,1976,"Polyester",9,17.4,691.3,10.5
"148","Filer","SCANIA",603,1997,"Polyester",7.6,11.3,797.6,18.8
"149","Filer","Volvo",248,1987,"Polyester",4.9,2.5,0,3.4
"150","Speedboat","Iveco",886,1986,"Alluminium alloy",14.9,98.4,797.6,2.8
"151","Trawler","BAUDOUIN",213,1969,"Wood",6.3,10.8,0,0.8
"152","Filer","Nanni",354,1994,"Polyester",9.9,27.7,886.2,7.3
"153","Filer","BAUDOUIN",266,1985,"Alluminium alloy",5.1,2.5,118.8,1.1
"154","Speedboat","YAMAHA",354,1978,"Polyester",4.9,7.8,469.7,1.2
"155","Crab boat","BAUDOUIN",425,1978,"Polyester",7.7,7.6,0,7.8
"158","Filer","Cummins",284,1994,"Polyester",10.4,41.8,620.4,0
"159","Trawler","Cummins",620,1975,"Wood",12.2,91.4,797.6,14.6
"160","Filer","BAUDOUIN",152,1987,"Polyester",4.6,2.3,113.4,3.8
"161","Filer","Volvo",390,1980,"Polyester",7.7,9.8,567.2,27.9
"162","Filer","BAUDOUIN",152,1987,"Polyester",4.6,2.3,113.4,1.1
"164","Filer","Iveco",195,1976,"Polyester",9.2,14.5,567.2,85.2
"165","Filer","CATERPILLAR",381,1970,"Polyester",9.7,37.5,675.5,4.7
"167","Trawler","BAUDOUIN",620,1977,"Wood",7.7,27.7,620.4,1.5
"168","Filer","YANMAR",222,1973,"Polyester",4.9,3.1,71.3,0.9
"169","Filer","BAUDOUIN",248,1968,"Wood",6.9,10.6,0,14.4
"170","Trawler","BAUDOUIN",620,1975,"Wood",8.4,23.2,354.5,4.1
"171","Crab boat","Iveco",177,1972,"Polyester",5.6,6.8,216.2,0.7
"173","Trawler","POYAUD",585,1973,"Wood",7.6,10.2,301.3,0.8
"174","Filer","Cummins",133,1978,"Alluminium alloy",5.9,2.7,0,6.2
"175","Crab boat","SUZUKI",266,1981,"Polyester",6.7,14.2,324.3,3.1
"176","Filer","BAUDOUIN",443,1978,"Polyester",6.4,6.5,265.9,3.8
"178","Troller","CATERPILLAR",230,1974,"Polyester",5.6,7.8,79.8,0.8
"180","Filer","SCANIA",266,1974,"Wood",5.4,5.1,53.2,1.2
"181","Trawler","Volvo",266,1976,"Polyester",6.9,12.4,270.2,29.1
"182","Diving support ship","Iveco",532,1995,"Wood",6.7,6.6,469.7,3.3
"185","Filer","YAMAHA",532,1981,"Polyester",7.6,7.4,514,1.6
"187","Trawler","SCANIA",266,1991,"Wood",7.5,13.3,558.3,1.4
"188","Troller","Volvo",239,1980,"Polyester",4.9,4.6,88.6,13.4
"190","Trawler","BAUDOUIN",709,1996,"Steel",11.9,101.6,1354.2,5.6
"192","Troller","Cummins",177,1994,"Polyester",5.8,4.1,297.8,3
"196","Trawler","CATERPILLAR",106,1972,"Wood",5.3,2.1,44.3,1.1
"197","Trawler","YAMAHA",851,1981,"Steel",13.5,133.5,1152.1,23.4
"198","Trawler","HONDA",780,1982,"Polyester",11.6,72.4,1079.4,1.3
"200","Crab boat","PERKINS",89,1974,"Polyester",4.6,2.7,141.8,0
"203","Dredger","Volvo",253,1959,"Wood",6.4,12.8,216.2,223.3
"204","Coast catamaran","BAUDOUIN",266,1985,"Polyester",14.3,64.3,1063.5,1.1
"205","Filer","MAN",195,1972,"Polyester",6.1,8.3,177.2,0.6
"209","Filer","Volvo",425,1973,"Polyester",7.7,24.4,354.5,0.6
"210","Shellfish boat","BONI VALMET",408,1979,"Polyester",11.5,20.8,336.8,1.2
"211","Fishing vessel","Iveco",354,1993,"Polyester",6.3,5.3,159.5,2
"212","Trawler","CATERPILLAR",266,1976,"Polyester",6.9,12.4,270.2,6.1
"213","Fishing vessel","YAMAHA",204,1987,"Polyester",4.6,3.8,26.6,0.5
"214","Trawler","MAN",798,1981,"Wood",11.6,104.6,857.9,29.1
"216","Filer","MAN",390,2001,"Alluminium alloy",6.4,9.5,487.4,7.6
"217","Speedboat","Volvo",142,1977,"Reinforced Plastic",3.3,2.1,12.4,3.2
"219","Trawler","Cummins",177,1978,"Wood",7.2,9.4,265.9,1.7
"221","Troller","YAMAHA",199,1995,"Alluminium alloy",5.4,3.9,230.4,4.8
"222","Filer","STORK",443,1977,"Polyester",7.7,24.9,531.7,1.2
"223","Trawler","CATERPILLAR",230,1961,"Wood",5.8,7.2,81.1,0
"224","Trawler","BAUDOUIN",230,1961,"Wood",5.8,7.2,81.1,3.2
"225","Trawler","CATERPILLAR",266,1990,"Polyester",6.3,10.1,216.2,1.8
"226","Filer","PERKINS",496,1990,"Polyester",6.9,7.6,443.1,4.9
"227","Trawler","Cummins",177,2000,"Alluminium alloy",5.8,2.5,106.3,5.8
"228","Troller","BAUDOUIN",284,1999,"Polyester",5.4,4.5,354.5,0.6
"230","Filer","YANMAR",674,1976,"Polyester",7.7,24,620.4,33.1
"231","Filer","Cummins",434,1995,"Polyester",7.7,19.5,0,0.8
"232","Filer","Iveco",542,1978,"Polyester",7.1,4.1,230.4,0.5
"233","Filer","Iveco",532,1980,"Polyester",6.2,4.9,354.5,5.7
"235","Trawler","Volvo",177,1975,"Wood",5.9,3.1,70.9,73.7
"236","Trawler","Volvo",177,1975,"Wood",5.9,3.1,70.9,27.6
"237","Troller","PERKINS",780,1997,"Polyester",11.9,71.3,1152.1,5.5
"238","Trawler","Cummins",347,1971,"Wood",7,9.8,177.2,1.2
"239","Crab boat","CATERPILLAR",133,1977,"Alluminium alloy",5.8,8.4,354.5,12
"241","Crab boat","YAMAHA",354,1978,"Polyester",7.6,6.8,327.9,4.8
"242","Troller","CATERPILLAR",222,1994,"Polyester",4.5,2.6,79.8,1.4
"243","Trawler","POYAUD",390,1976,"Polyester",7.7,22.1,549.5,3.7
"244","Crab boat","SUZUKI",496,1967,"Wood",12.3,42.1,595.5,35.6
"245","Filer","Iveco",142,1993,"Alluminium alloy",4.5,3,129.4,130.2
"246","Trawler","BAUDOUIN",1076,1993,"Steel",15.4,154.4,1196.4,0.6
"248","Shellfish boat","YAMAHA",408,1979,"Polyester",11.5,20.8,336.8,24.6
"250","Trawler","Iveco",223,1970,"Wood",6.7,10.9,230.4,1.1
"253","Trawler","CATERPILLAR",780,1982,"Polyester",11.6,72.4,1079.4,1.5
"254","Trawler","BAUDOUIN",441,1979,"Steel",7.6,25.1,742.1,90.9
"257","Filer","Nanni",177,1974,"Wood",6.7,9.2,265.9,4.6
"259","Filer","SCANIA",266,1964,"Wood",7.7,19.5,0,334.1
"260","Filer","BAUDOUIN",670,1977,"Steel",11.1,39.1,744.4,5.3
"261","Crab boat","A.B.C.",454,1968,"Polyester",6.3,3.9,132.9,10.1
"262","Filer","BONI VALMET",133,1978,"Alluminium alloy",5.9,2.7,0,5.9
"263","Crab boat","YAMAHA",177,1991,"Alluminium alloy",4.6,2.6,27.3,20.8
"266","Trawler","BAUDOUIN",266,1970,"Wood",5.8,4.9,230.4,2.1
"268","Trawler","BAUDOUIN",798,1995,"Steel",13.5,133.4,3242.5,13.8
"272","Trawler","POYAUD",978,1979,"Steel",15.9,190.2,0,1.1
"273","Filer","BAUDOUIN",388,1978,"Polyester",7.7,13.4,0,10.9
"274","Trawler","MERCEDES",367,1968,"Steel",8.5,18.2,378.3,5.1
"275","Crab boat","BAUDOUIN",443,1972,"Polyester",7.2,7.3,301.3,1.3
"277","Trawler","DEUTZ",783,1994,"Steel",16,184.5,3544.9,86.3
"278","Filer","GUASCOR",443,1978,"Polyester",6.4,6.5,265.9,3.5
"279","Crab boat","Volvo",585,1975,"Wood",12.6,117.8,1063.5,11
"280","Trawler","SCANIA",319,1977,"Polyester",6.4,8.4,229.7,4.1
"281","Trawler","DAEWOO",390,1967,"Wood",7.1,19.3,407.7,3.8
"282","Filer","CATERPILLAR",390,1985,"Polyester",7.7,17.4,593.8,0.8
"284","Trawler","YAMAHA",213,1969,"Wood",6.3,10.8,0,5.3
"285","Trawler","Mitsubishi",798,1980,"Wood",11.5,104.6,850.8,387.3
"287","Filer","BAUDOUIN",133,1961,"Polyester",3.9,2.1,79.8,0.3
"292","Filer","Mitsubishi",284,1978,"Polyester",7.6,9,443.1,26.2
"293","Trawler","DEUTZ",1418,1975,"Steel",15.5,126.3,2162.4,20.5
"294","Filer","Volvo",585,1979,"Polyester",10.2,57.2,0,0
"296","Filer","PERKINS",425,1982,"Polyester",7.7,24.1,602.6,1.6
"298","Trawler","Cummins",564,1978,"Steel",9.2,45.8,886.2,8.2
"299","Crab boat","SCANIA",392,1978,"Polyester",7.7,9.8,443.1,0
"300","Coast catamaran","Iveco",266,1985,"Polyester",14.3,64.3,1063.5,0
"301","Filer","BAUDOUIN",372,1981,"Alluminium alloy",13.7,186.6,1891.4,5.4
"302","Troller","MAN",97,1975,"Wood",4,2.9,53.2,0.3
"303","Trawler","PERKINS",739,1980,"Steel",13.2,116.4,0,1918.1
"304","Trawler","BAUDOUIN",509,1969,"Wood",10.3,50.8,1210.8,5.2
"305","Filer","CATERPILLAR",798,1979,"Steel",10.2,87.2,0,5.2
"307","Trawler","Iveco",585,1975,"Wood",9.9,33.6,407.7,1.5
"308","Filer","CATERPILLAR",390,1980,"Polyester",7.6,9.2,622.1,11.3
"309","Trawler","CATERPILLAR",532,1969,"Wood",9.8,48.7,655.8,5.6
"311","Filer","Cummins",354,1984,"Polyester",7.7,16.4,0,2.4
"312","Trawler","Iveco",560,1990,"Steel",15,99.9,2703,6.1
"313","Trawler","BAUDOUIN",532,1967,"Polyester",9.4,44,549.5,50
"314","Trawler","Iveco",585,1975,"Wood",9.9,33.6,407.7,12.7
"315","Trawler","WARTSILA",349,1969,"Polyester",6.3,7.3,212.7,0.4
"318","Crab boat","Iveco",354,2001,"Alluminium alloy",5.1,4.3,88.6,28.4
"321","Filer","Mitsubishi",133,1978,"Alluminium alloy",5.9,2.7,0,82.1
"322","Filer","BAUDOUIN",532,1997,"Polyester",7.7,13,726.7,7.8
"323","Trawler","CATERPILLAR",532,1971,"Wood",7.7,20.8,540.4,8
"324","Crab boat","YAMAHA",266,1978,"Polyester",6.1,8.3,292.5,5.4
"325","Speedboat","Nanni",354,1978,"Polyester",4.9,7.8,469.7,7.7
"327","Filer","SCANIA",390,1989,"Polyester",7.5,9.2,265.9,7
"328","Trawler","YANMAR",851,1981,"Steel",10.2,78.6,1063.5,1.4
"329","Trawler","SUZUKI",1063,1978,"Steel",14.4,167.2,2392.8,3.3
"330","Filer","BAUDOUIN",204,1993,"Polyester",4.8,2.2,141.8,3.5
"331","Filer","DEUTZ",142,1995,"Polyester",5.4,4.1,273,0.6
"332","Crab boat","BAUDOUIN",80,1971,"Wood",4.4,3,106.3,2.8
"333","Trawler","BAUDOUIN",939,1971,"Steel",13.1,109.8,886.2,1.6
"334","Speedboat","YAMAHA",266,1982,"Alluminium alloy",7.7,14.3,297.2,59.4
"335","Filer","YAMAHA",186,1979,"Steel",7.6,13.3,513.4,0.4
"337","Filer","CATERPILLAR",266,1985,"Alluminium alloy",5.1,2.5,118.8,0.7
"338","Filer","CATERPILLAR",266,1985,"Alluminium alloy",5.1,2.5,118.8,0.7
"339","Filer","MAN",266,1985,"Alluminium alloy",5.1,2.5,118.8,0.7
"340","Filer","Iveco",266,1985,"Alluminium alloy",5.1,2.5,118.8,0.7
"342","Filer","PERKINS",266,1985,"Alluminium alloy",5.1,2.5,118.8,1.8
"343","Filer","HONDA",266,1985,"Alluminium alloy",5.1,2.5,118.8,1.8
"344","Filer","Iveco",266,1985,"Alluminium alloy",5.1,2.5,118.8,1.8
"345","Filer","Nanni",266,1985,"Alluminium alloy",5.1,2.5,118.8,1.8
"346","Filer","Mitsubishi",266,1985,"Alluminium alloy",5.1,2.5,118.8,1.8
"347","Filer","Cummins",266,1985,"Alluminium alloy",5.1,2.5,118.8,1.8
"348","Trawler","Volvo",367,1998,"Alluminium alloy",7.7,27.1,37.2,0
"351","Dredger","Iveco",434,1963,"Wood",6.4,10.7,216.2,9.4
"352","Trawler","BAUDOUIN",284,1960,"Wood",6.1,9.4,212.7,1
"353","Trawler","BAUDOUIN",213,1955,"Wood",6.3,6.4,177.2,0.9
"354","Crab boat","BAUDOUIN",346,1981,"Polyester",7.1,10.9,319,4.3
"355","Fishing vessel","BAUDOUIN",89,1986,"Polyester",3.3,2.1,62,72.2
"358","Trawler","Volvo",177,1959,"Wood",5.7,6.9,124.1,1.1
"359","Crab boat","PERKINS",390,1978,"Wood",7.2,15.3,319,1.2
"360","Filer","Iveco",372,1981,"Alluminium alloy",13.7,186.6,1891.4,8.2
"362","Filer","JOHN DEER",780,1985,"Polyester",7.7,12.5,584.9,7.6
"365","Trawler","SUZUKI",443,1983,"Wood",6.3,10.1,389.9,36.5
"366","Trawler","BAUDOUIN",470,1962,"Wood",9.8,44.4,443.1,4.1
"367","Filer","Iveco",106,1989,"Wood",7.6,9.2,354.5,4.2
"368","Filer","SCANIA",106,1989,"Wood",7.6,9.2,354.5,0.7
"370","Trawler","MAN",975,1979,"Steel",12.4,108.2,886.2,1.8
"372","Trawler","CATERPILLAR",129,1955,"Wood",6,5.8,88.6,5.2
"373","Trawler","BONI VALMET",230,1961,"Wood",5.8,7.2,81.1,0
"376","Trawler","SCANIA",975,1979,"Steel",12.4,108.2,886.2,11.8
"378","Trawler","BONI VALMET",1329,1979,"Steel",16,190.2,0,7.5
"379","Coast catamaran","Cummins",284,1994,"Polyester",14.3,47.6,974.8,2.8
"380","Trawler","HONDA",585,1979,"Polyester",9.6,42.7,833.1,15.3
"381","Crab boat","MERCURY",310,1974,"Wood",6.2,5.6,0,0.9
"382","Crab boat","BONI VALMET",278,1981,"Polyester",5.8,8,245.3,1
"383","Trawler","BAUDOUIN",585,1974,"Steel",10.2,59.4,709,1.2
"384","Trawler","Cummins",709,1979,"Steel",11,99.5,0,4.2
"385","Crab boat","BAUDOUIN",53,1968,"Polyester",3.4,1,35.4,31
"386","Trawler","SCANIA",1778,2001,"Steel",15.4,215.4,4431.1,5.5
"387","Coast catamaran","Iveco",284,1991,"Polyester",16,48.6,1316.9,52.6
"392","Crab boat","Iveco",186,1934,"Steel",7.4,11.6,460.8,0.4
"393","Coast catamaran","Iveco",67,1979,"Polyester",11.7,30.9,301.3,2.4
"394","Trawler","Volvo",1063,1978,"Steel",14.4,167.2,2392.8,3.9
"396","Filer","Volvo",262,1971,"Wood",6,10.7,97.5,2.8
"397","Filer","BAUDOUIN",443,1977,"Polyester",7.7,13.3,407.7,14.4
"399","Trawler","SCANIA",177,1970,"Wood",5.3,4.5,177.2,1.2
"402","Trawler","Volvo",585,1995,"Steel",7,13.3,446.5,1.7
"403","Trawler","JOHN DEER",532,1967,"Polyester",9.4,44,549.5,1.1
"405","Tug catamaran","CATERPILLAR",2517,1995,"Polyester",12.1,46.2,354.5,2.2
"406","Crab boat","CATERPILLAR",177,1983,"Polyester",5.9,5.7,219.1,1.1
"407","Filer","YAMAHA",372,1981,"Alluminium alloy",13.7,186.6,1891.4,0
"408","Troller","WARTSILA",686,1978,"Polyester",9.6,53.7,951.1,3.7
"409","Crab boat","BAUDOUIN",310,1974,"Alluminium alloy",6.3,9.3,212.7,13.6
"410","Trawler","Volvo",1152,1978,"Steel",11.9,96.3,1609.1,16.7
"411","Troller","Iveco",372,1990,"Polyester",6.7,4.7,301.3,1.2
"413","Filer","YAMAHA",367,1968,"Polyester",9.8,33.2,797.6,4.3
"414","Filer","SCANIA",688,1978,"Polyester",7.7,10.1,464.5,2.2
"415","Filer","BAUDOUIN",603,1997,"Polyester",7.6,11.3,797.6,15.6
"416","Crab boat","Nanni",204,1971,"Polyester",4.7,4.3,108.1,2.7
"417","Filer","BAUDOUIN",248,1992,"Polyester",7.1,9.3,0,1
"418","Crab boat","POYAUD",266,1995,"Alluminium alloy",5.2,4.4,177.2,1
"419","Speedboat","Cummins",443,1977,"Polyester",7.4,10,407.7,0
"420","Crab boat","DEUTZ",354,2001,"Alluminium alloy",5.1,4.4,106.3,10.1
"421","Filer","Volvo",204,1987,"Polyester",5.2,2.2,159.5,14
"422","Trawler","Iveco",266,1986,"Polyester",5.3,4.1,265.9,15.9
"423","Trawler","MERCURY",670,1973,"Wood",10.2,51.5,974.8,4.1
"424","Filer","Volvo",204,1985,"Alluminium alloy",5.1,3,93.9,6.4
"426","Monohull","YAMAHA",9,1979,"Polyester",4.2,3,12.4,7.3
"427","Crab boat","Cummins",262,1971,"Polyester",7.1,17.6,354.5,25.3
"428","Filer","BAUDOUIN",532,1978,"Polyester",7.7,24,531.7,5
"429","Trawler","Iveco",255,1996,"Polyester",6.6,11.8,709,0
"430","Filer","SCANIA",425,1996,"Polyester",5.4,4.1,248.1,2.5
"432","Filer","SCANIA",266,1981,"Polyester",7.3,8.8,324.2,0.6
"433","Crab boat","BAUDOUIN",97,1971,"Wood",4.3,4.7,364.8,7.4
"435","Troller","CATERPILLAR",199,1995,"Alluminium alloy",5.4,3.9,230.4,2
"436","Filer","BAUDOUIN",372,1976,"Polyester",9,17.4,691.3,8.7
"437","Filer","Iveco",106,1989,"Wood",7.6,9.2,354.5,1.3
"438","Trawler","SUZUKI",585,1975,"Wood",9.9,33.6,407.7,4
"440","Filer","BAUDOUIN",133,1998,"Alluminium alloy",6.3,6.6,425.4,26.5
"441","Filer","Iveco",354,1984,"Polyester",7.7,16.4,886.2,5.1
"442","Trawler","BAUDOUIN",168,1967,"Wood",7,4.1,124.1,9.7
"446","Fishing vessel","Volvo",443,1996,"Polyester",5.4,3.7,88.6,7.6
"447","Trawler","Iveco",383,1975,"Polyester",7.7,22.1,567.2,10.3
"448","Trawler","Iveco",319,1977,"Polyester",6.4,8.4,229.7,1.6
"449","Trawler","YAMAHA",560,1990,"Steel",15,99.9,2703,7.6
"453","Trawler","BAUDOUIN",532,1967,"Polyester",9.4,44,549.5,20.1
"454","Troller","Cummins",798,1997,"Polyester",7.7,13,850.8,13.6
"455","Crab boat","MERCURY",354,1977,"Polyester",6.4,8,248.1,8.8
"459","Filer","Iveco",372,1981,"Alluminium alloy",13.7,186.6,1891.4,63.7
"460","Crab boat","BAUDOUIN",310,1974,"Alluminium alloy",6.3,9.3,212.7,3.6
"461","Trawler","Volvo",558,1980,"Steel",10.2,76.9,974.8,4
"462","Trawler","Volvo",939,1971,"Steel",13.1,109.8,886.2,5.6
"463","Trawler","CATERPILLAR",1063,1976,"Steel",16,197.7,1891.5,25.1
"466","Trawler","SCANIA",585,1974,"Wood",9.2,37.1,810,18.7
"467","Filer","YAMAHA",266,1974,"Wood",5.4,5.1,53.2,0.9
"468","Troller","BAUDOUIN",443,1977,"Polyester",7,7.2,389.9,1.1
"469","Filer","SUZUKI",603,1978,"Polyester",7.7,9.6,265.9,1.8
"470","Trawler","Cummins",223,1970,"Wood",6.7,10.9,230.4,7.4
"471","Crab boat","SUZUKI",328,1975,"Polyester",4.5,4.2,120.5,2.8
"472","Troller","Mitsubishi",301,1979,"Polyester",5.9,8.2,195,1.1
"473","Crab boat","Volvo",390,1986,"Polyester",7.6,16.2,459.4,4.9
"474","Troller","BAUDOUIN",239,1978,"Polyester",5,2.1,124.1,29.6
"476","Filer","YAMAHA",798,1979,"Steel",10.2,87.2,1152.1,4.3
"480","Filer","Cummins",532,1976,"Alluminium alloy",7.7,9.2,354.5,0
"481","Crab boat","BAUDOUIN",89,1974,"Polyester",4.6,2.7,141.8,5.8
"483","Crab boat","MWM",142,1970,"Wood",4.6,1.9,62.1,1.1
"484","Trawler","Iveco",1267,1979,"Steel",15.4,155.4,2431.9,74.6
"485","Filer","BAUDOUIN",674,1983,"Polyester",7.7,12.3,611.5,1.4
"486","Filer","Iveco",390,1981,"Polyester",7.7,17.8,478.6,1.2
"488","Filer","BAUDOUIN",248,1992,"Polyester",7.6,13.6,425.4,1.3
"491","Crab boat","YAMAHA",331,1969,"Polyester",5.8,4.8,177.2,0.9
"492","Filer","CATERPILLAR",443,2004,"Polyester",6.4,6.8,407.7,149.1
"493","Filer","Volvo",152,1987,"Polyester",4.6,2.3,113.4,2.2
"494","Trawler","POYAUD",585,1978,"Polyester",9.2,30.1,939.4,1.9
"496","Trawler","BAUDOUIN",168,1967,"Wood",7,4.1,124.1,0.7
"497","Trawler","SCANIA",798,1977,"Polyester",10.1,72,815.3,5.7
"499","Filer","Mitsubishi",266,1971,"Polyester",6.3,4.3,159.5,0.8
"500","Crab boat","HONDA",133,1960,"Wood",5.3,4.5,265.9,20.9
"501","Trawler","BAUDOUIN",1152,1978,"Steel",11.9,96.3,886.2,4.4
"502","Filer","MERCEDES",390,1989,"Polyester",7.5,9.2,265.9,2.2
"503","Filer","BAUDOUIN",230,1977,"Polyester",4.6,1.4,53.2,0.7
"504","Filer","SCANIA",354,1984,"Polyester",7.6,17.4,677.1,5
"505","Trawler","Iveco",1579,1998,"Steel",16,185.7,3544.9,2651.2
"506","Trawler","Cummins",585,1981,"Steel",10.3,69.6,1063.5,3.7
"509","Fishing vessel","SCANIA",399,1994,"Polyester",5.1,3.3,75.7,5.2
"510","Filer","BAUDOUIN",248,1992,"Polyester",7.1,9.3,0,4.3
"511","Trawler","Iveco",585,1978,"Polyester",9.2,30.1,939.4,16.9
"512","Troller","VETUS",425,1971,"Wood",6.6,4.1,212.7,37.2
"514","Filer","BAUDOUIN",195,1971,"Wood",7.1,6.2,162.1,1
"517","Trawler","Iveco",310,1969,"Wood",6.3,10.8,389.9,1.1
"519","Trawler","CATERPILLAR",663,1974,"Steel",9.9,43,797.6,3.7
"520","Trawler","PERKINS",1329,1979,"Steel",16,190.2,0,0.7
"521","Trawler","Cummins",1063,1976,"Steel",12.5,62.6,0,1.6
"524","Crab boat","YAMAHA",381,1979,"Polyester",7.2,9.4,425.4,13.1
"525","Filer","Iveco",390,1974,"Polyester",7.6,6.3,301.3,0
"526","Filer","Cummins",312,1979,"Polyester",7.7,8.9,407.7,9.1
"528","Filer","POYAUD",262,1971,"Wood",6,10.7,97.5,1.6
"530","Crab boat","Iveco",266,1973,"Alluminium alloy",5.8,9.1,124.1,2.9
"531","Trawler","BAUDOUIN",367,1968,"Steel",8.5,18.2,378.3,6.7
"533","Trawler","BAUDOUIN",558,1980,"Steel",10.2,76.9,974.8,4.2
"535","Trawler","BAUDOUIN",367,1968,"Steel",8.5,18.2,378.3,9.2
"536","Crab boat","Iveco",390,1978,"Polyester",6.1,8.3,265.9,3.5
"537","Crab boat","Iveco",319,1970,"Wood",7.7,21.8,177.2,1.1
"538","Trawler","SUZUKI",1418,1981,"Steel",16,209.1,2837.2,237.6
"540","Filer","Cummins",390,1974,"Polyester",7.6,6.3,301.3,1.1
"541","Filer","Volvo",277,1975,"Wood",7,14.4,265.9,8.7
"542","Monohull","Volvo",27,1932,"Wood",5.8,5,44.3,0.5
"545","Crab boat","Volvo",177,1963,"Wood",5.4,4.5,88.6,3
"546","Speedboat","YAMAHA",443,1977,"Polyester",7.4,10,407.7,0
"547","Filer","PERKINS",404,1982,"Polyester",7.7,20.8,505.1,5.6
"548","Filer","Cummins",408,1978,"Polyester",7.7,7.7,416.5,6.4
"549","Trawler","SCANIA",886,1981,"Steel",14.6,88.2,2126.9,19.3
"550","Trawler","BAUDOUIN",266,1962,"Wood",6.6,4.1,239.3,0.9
"551","Filer","Volvo",617,1979,"Polyester",7.6,7.5,283.6,1.2
"554","Crab boat","Nanni",266,1982,"Alluminium alloy",4.2,2.1,886.2,106.2
"556","Trawler","Iveco",381,1971,"Polyester",10.8,64.5,810.6,11.9
"557","Filer","BAUDOUIN",266,1968,"Polyester",6.3,8.1,212.7,0.8
"558","Crab boat","Nanni",195,1990,"Alluminium alloy",7.2,7.8,248.1,1.2
"559","Trawler","Volvo",532,1963,"Polyester",8,12.2,108.1,6.3
"560","Trawler","SCANIA",266,1996,"Polyester",7.2,14,717.8,0.9
"562","Trawler","STORK",585,1995,"Steel",7,13.3,446.5,16.7
"563","Troller","Volvo",199,1995,"Alluminium alloy",5.4,3.9,230.4,1.4
"564","Crab boat","SUZUKI",195,1979,"Alluminium alloy",7.7,11.3,531.7,0
"565","Filer","Volvo",177,1983,"Polyester",3.9,1.4,49.6,1
"566","Dredger","Iveco",188,1969,"Wood",5.8,10.2,0,2.6
"567","Trawler","CATERPILLAR",390,1986,"Polyester",7.7,25.6,1215.9,3
"568","Filer","Volvo",284,1994,"Polyester",10.4,41.8,620.4,11.3
"569","Trawler","SCANIA",1117,1976,"Steel",14.4,122.5,1891.5,12
"571","Fishing vessel","Mitsubishi",177,1995,"Alluminium alloy",6.1,4.9,354.5,0
"572","Crab boat","MWM",80,1971,"Wood",4.4,3,106.3,1.6
"573","Crab boat","BAUDOUIN",532,1978,"Polyester",7.7,9.2,354.5,0.7
"574","Trawler","Iveco",177,1989,"Wood",7,6.8,230.4,2.1
"576","Crab boat","Iveco",354,1978,"Polyester",7.6,6.8,327.9,6.9
"577","Troller","CATERPILLAR",266,1995,"Polyester",5.8,4.7,177.2,1.1
"579","Crab boat","BAUDOUIN",390,1978,"Wood",7.2,15.3,319,20.4
"581","Coast catamaran","BAUDOUIN",284,1994,"Polyester",14.3,47.6,974.8,3.8
"582","Filer","SUZUKI",264,1972,"Polyester",7.1,9.2,265.9,0.7
"584","Filer","Cummins",532,1997,"Polyester",7.7,13,726.7,22.6
"585","Powered catamaran","Iveco",331,1988,"Alluminium alloy",6.4,7.2,230.4,4.9
"586","Filer","Cummins",266,1977,"Polyester",5.3,3,70.9,2.6
"587","Filer","SCANIA",266,1971,"Polyester",6.6,4.8,203.8,0.8
"588","Filer","BAUDOUIN",266,1970,"Polyester",7.5,6.2,460.8,0.4
"589","Speedboat","BAUDOUIN",443,1951,"Steel",6.1,10.2,35.4,0.6
"593","Troller","YAMAHA",408,1978,"Polyester",6.4,7.4,301.3,2.8
"595","Fishing vessel","SCANIA",399,1999,"Polyester",5.1,1.2,85.1,0
"597","Troller","Cummins",390,1986,"Alluminium alloy",6.3,5.2,230.4,16.5
"600","Filer","MARINER",133,1998,"Alluminium alloy",6.3,6.6,425.4,5.2
"602","Filer","CATERPILLAR",177,1945,"Wood",6.8,7.6,177.2,0
"603","Fishing vessel","YAMAHA",204,1978,"Polyester",4.9,2.8,97.5,0.6
"606","Trawler","YAMAHA",425,1989,"Polyester",7.6,26.9,1276.2,1.5
"607","Trawler","CATERPILLAR",620,1975,"Wood",8.4,23.2,354.5,1.1
"608","Trawler","STORK",266,1976,"Polyester",6.9,12.4,270.2,8.2
"610","Trawler","YANMAR",266,1977,"Polyester",6.1,8.3,239.3,0.7
"611","Coast catamaran","BAUDOUIN",241,1996,"Alluminium alloy",7.6,11.5,407.7,1.4
"613","Filer","CATERPILLAR",617,1979,"Polyester",7.6,7.5,283.6,320.8
"614","Troller","BAUDOUIN",177,1995,"Polyester",6,3.8,283.6,6.5
"616","Trawler","CATERPILLAR",390,1967,"Wood",7.1,19.3,407.7,1.4
"617","Speedboat","POYAUD",532,1999,"Polyester",8.1,10.3,274.7,7.1
"619","Troller","BAUDOUIN",408,1978,"Polyester",6.4,7.4,531.7,5.2
"625","Monohull","Nanni",50,1978,"Polyester",6.5,11.3,88.6,1.4
"626","Filer","CATERPILLAR",532,1993,"Polyester",7.6,7.8,351.3,0
"627","Filer","YAMAHA",195,1976,"Polyester",9.2,14.5,567.2,5.2
"628","Trawler","Cummins",532,1974,"Polyester",6.6,8.3,265.9,9.4
"630","Troller","Iveco",425,1971,"Wood",6.6,4.1,150.7,0.8
"631","Trawler","CATERPILLAR",383,1975,"Polyester",7.7,22.1,567.2,9.4
"633","Filer","Iveco",638,1974,"Wood",9.5,35.9,567.2,4.4
"634","Crab boat","BONI VALMET",266,1979,"Polyester",6.7,14.2,390.6,1.2
"637","Speedboat","MAN",177,2004,"Alluminium alloy",3.8,2.1,56.7,0.5
"639","Trawler","SUZUKI",310,1980,"Polyester",6.7,12.1,443.1,4.5
"641","Filer","Nanni",532,1993,"Polyester",7.6,7.8,351.3,11.5
"643","Filer","CATERPILLAR",390,1989,"Polyester",7.5,9.2,265.9,4.6
"644","Trawler","SUZUKI",1579,2003,"Steel",16,213.4,4431.1,8.6
"646","Trawler","PERKINS",383,1975,"Polyester",7.7,22.1,567.2,3.5
"647","Dredger","DAF",188,1969,"Wood",5.8,10.2,28.4,6.8
"648","Filer","BAUDOUIN",367,1968,"Polyester",9.8,33.2,797.6,15.9
"651","Troller","Cummins",443,1977,"Polyester",7,7.2,389.9,9.7
"652","Dredger","SCANIA",188,1969,"Wood",5.8,10.2,0,23.8
"653","Crab boat","Mitsubishi",266,1979,"Polyester",6.7,14.2,390.6,1.1
"654","Speedboat","CATERPILLAR",89,1968,"Polyester",4.1,5.1,17.7,6.3
"655","Troller","Cummins",266,1995,"Polyester",5.8,4.7,177.2,5.3
"656","Filer","Cummins",588,1979,"Polyester",8.3,31.8,886.2,4.6
"661","Filer","BAUDOUIN",152,1987,"Polyester",4.6,2.3,205.6,0.4
"662","Filer","Volvo",195,1997,"Steel",7.2,20.5,797.6,33.5
"664","Trawler","Volvo",1581,2000,"Steel",16,185.4,3544.9,363.2
"666","Passenger vessel","Cummins",213,1971,"Plasticized Plywood",10.9,23,324.3,26.1
"667","Trawler","Mitsubishi",558,1980,"Steel",10.2,76.9,974.8,5.3
"668","Trawler","Iveco",346,1983,"Polyester",7.6,16.8,551.4,16.7
"669","Filer","BONI VALMET",588,1979,"Polyester",8.3,31.8,886.2,3.4
"671","Trawler","Iveco",1063,1978,"Steel",14.4,167.2,2392.8,5.4
"672","Passenger vessel","Iveco",204,1996,"Polyester",4.6,10.3,44.3,1.9
"673","Trawler","Iveco",1581,2000,"Steel",16,185.4,3544.9,6.3
"674","Fishing vessel","Volvo",266,2001,"Polyester",5.6,3.7,91.3,3.2
"675","Coast catamaran","CATERPILLAR",284,1991,"Polyester",16,48.6,1418,61.5
"676","Crab boat","Mitsubishi",443,1990,"Polyester",4.8,4.4,230.4,4.5
"677","Coast catamaran","CATERPILLAR",284,1991,"Polyester",16,48.6,1418,1331.3
"678","Crab boat","Iveco",310,1974,"Alluminium alloy",6.3,9.3,248.1,8.6
"679","Speedboat","HONDA",443,1977,"Polyester",7.4,10,407.7,1
"680","Crab boat","Mitsubishi",160,1989,"Alluminium alloy",4.7,3.6,124.1,11
"681","Sport catamaran","BAUDOUIN",798,1996,"Polyester",6.2,5.5,115.2,5.4
"683","Troller","Cummins",390,1978,"Polyester",6.3,8.1,354.5,26.7
"684","Trawler","PERKINS",310,1969,"Wood",6.3,10.8,389.9,0.8
"685","Crab boat","Iveco",392,1978,"Polyester",7.7,9.8,443.1,8.9
"687","Trawler","BAUDOUIN",585,1981,"Polyester",10.2,67,1080.8,0
"688","Filer","BAUDOUIN",372,1981,"Alluminium alloy",13.7,186.6,1891.4,48.4
"690","Crab boat","BAUDOUIN",390,1986,"Polyester",7.6,16.2,459.4,17.2
"691","Dredger","Cummins",319,1964,"Wood",6.5,10.8,203.8,8.2
"692","Filer","CATERPILLAR",496,1990,"Polyester",6.9,7.6,443.1,14.4
"693","Filer","BAUDOUIN",390,1985,"Polyester",7.7,17.4,593.8,0.9
"694","Filer","YAMAHA",744,1977,"Polyester",13,74.6,945.8,13.2
"696","Filer","Iveco",195,1997,"Steel",7.2,20.5,797.6,7.8
"697","Filer","Iveco",167,1977,"Polyester",5.6,3.3,124.1,0.5
"698","Trawler","Nanni",585,1974,"Steel",10.2,59.4,709,5.3
"699","Filer","CATERPILLAR",425,1974,"Polyester",7.3,5.9,460.8,10.1
"701","Crab boat","Iveco",195,1990,"Alluminium alloy",7.2,7.8,248.1,2.6
"703","Trawler","Cummins",509,1984,"Wood",10.1,34.5,709,11.8
"704","Crab boat","Volvo",354,1983,"Alluminium alloy",6.4,7.2,195,1.9
"708","Trawler","SUZUKI",585,1974,"Steel",10.2,59.4,709,0
"709","Filer","Volvo",354,1980,"Polyester",7.7,9.8,531.7,5.2
"710","Fishing vessel","BAUDOUIN",399,1999,"Polyester",5.1,1.2,85.1,63.2
"711","Filer","YANMAR",780,1985,"Polyester",7.7,12.5,584.9,0
"713","Crab boat","CATERPILLAR",454,1968,"Polyester",6.3,3.9,132.9,2
"715","Crab boat","BAUDOUIN",354,1978,"Polyester",7.6,6.8,327.9,12.3
"716","Trawler","BAUDOUIN",1267,1979,"Steel",15.4,155.4,2431.9,19
"717","Crab boat","BAUDOUIN",266,1982,"Alluminium alloy",4.2,2.1,886.2,-109.9
"718","Trawler","Mitsubishi",425,1973,"Polyester",7.7,14.8,270.2,3.1
"719","Crab boat","Iveco",168,1989,"Alluminium alloy",5.8,6.7,88.6,1.9
"720","Filer","Iveco",310,1965,"Polyester",6.4,4.2,301.3,21.3
"723","Filer","Iveco",284,1994,"Polyester",10.4,41.8,620.4,6.9
"724","Trawler","JOHN DEERE",798,1981,"Wood",11.6,104.6,857.9,7.3
"725","Trawler","BONI VALMET",780,1971,"Polyester",10.9,63.9,531.7,4.7
"726","Trawler","Mitsubishi",638,1976,"Wood",11.4,76,974.8,0
"727","Trawler","Volvo",709,1978,"Wood",9.5,48.3,531.7,0
"728","Crab boat","Cummins",80,1971,"Wood",4.4,3,106.3,97.5
"729","Trawler","Iveco",266,1969,"Wood",7.2,15.7,381.1,17.6
"731","Filer","CATERPILLAR",390,1989,"Polyester",7.5,9.2,265.9,3.5
"734","Crab boat","BAUDOUIN",145,1969,"Wood",5.2,4.2,119.6,1.2
"736","Trawler","BAUDOUIN",354,1973,"Steel",6.1,11.2,141.8,1.1
"737","Filer","CATERPILLAR",390,1989,"Polyester",7.5,9.2,265.9,5.9
"738","Trawler","PERKINS",470,1962,"Wood",9.8,44.4,443.1,9.4
"739","Filer","HONDA",390,1980,"Polyester",7.6,7.6,177.2,0
"740","Speedboat","HONDA",558,1993,"Wood Epoxy",8.4,27.2,460.8,10.6
"741","Filer","Iveco",204,1963,"Wood",5.4,6.9,177.2,0.9
"742","Fishing vessel","CATERPILLAR",239,1974,"Polyester",4.5,1.9,70.9,33.9
"743","Trawler","YAMAHA",780,1971,"Polyester",10.9,63.9,531.7,4.8
"744","Filer","Cummins",167,1977,"Polyester",5.6,3.3,124.1,17.3
"745","Trawler","Mitsubishi",133,1960,"Wood",5.6,6.9,35.4,7.2
"746","Trawler","PERKINS",367,1998,"Alluminium alloy",7.7,27.1,37.2,1.3
"748","Filer","BAUDOUIN",732,1965,"Wood",9.6,33.3,1240.7,243.4
"752","Trawler","SCANIA",354,1965,"Wood",7.2,9.2,243.2,1.5
"753","Crab boat","CATERPILLAR",454,1968,"Polyester",6.3,3.9,132.9,21.4
"755","Filer","CATERPILLAR",532,1993,"Polyester",7.6,7.8,351.3,6.9
"756","Filer","Nanni",354,1984,"Polyester",7.6,17.4,677.1,0.6
"757","Troller","Cummins",266,1975,"Wood",6.2,10.3,177.2,1.1
"759","Filer","WARTSILA",213,1996,"Polyester",7,14.3,567.2,2
"761","Filer","Nanni",372,1981,"Alluminium alloy",13.7,186.6,1891.4,0.3
"762","Trawler","CATERPILLAR",443,1983,"Wood",6.3,10.1,389.9,5.3
"764","Trawler","Nanni",347,1971,"Wood",7,9.8,177.2,10
"765","Trawler","BONI VALMET",674,1978,"Polyester",10.8,80.1,1137.9,1.6
"766","Troller","BAUDOUIN",124,1954,"Wood",5.5,3.6,88.6,1.7
"767","Filer","Nanni",780,1985,"Polyester",7.7,12.5,584.9,111
"769","Filer","PERKINS",230,1985,"Polyester",6.3,3.1,421.8,3.7
"771","Troller","Cummins",443,1977,"Polyester",7,7.2,389.9,15.7
"772","Filer","YANMAR",230,1975,"Polyester",5.3,5.2,0,1.5
"774","Filer","Iveco",390,1977,"Polyester",6.1,8.3,248.1,5.9
"776","Troller","Nanni",223,1993,"Alluminium alloy",4.7,3.6,97.5,3.6
"777","Trawler","Iveco",798,1995,"Steel",13.5,133.4,3242.5,35.1
"779","Crab boat","Iveco",346,1981,"Polyester",7.1,10.9,319,4.8
"780","Filer","PERKINS",780,1973,"Polyester",10,26.6,540.6,13.2
"781","Filer","Volvo",209,1994,"Polyester",6.3,5.8,389.9,3.5
"782","Crab boat","PERKINS",266,2001,"Alluminium alloy",7.7,9,620.4,4
"783","Trawler","Iveco",762,1978,"Steel",10.6,66.3,1352.4,4.6
"785","Filer","WARTSILA",390,1978,"Steel",10.2,67.9,1081.2,5.8
"786","Filer","Cummins",195,1997,"Steel",7.2,20.5,797.6,44.8
"787","Trawler","POYAUD",390,1980,"Wood",7,13.7,327.9,0
"788","Filer","DEUTZ",188,1975,"Polyester",5.7,6.5,108.1,1.2
"789","Speedboat","MWM",310,1978,"Polyester",5.2,4.1,159.5,1.1
"790","Fishing vessel","Iveco",89,1969,"Polyester",3.1,1.4,26.6,2.7
"791","Troller","PERKINS",266,1995,"Polyester",5.8,4.7,177.2,5.3
"792","Trawler","BAUDOUIN",390,1980,"Wood",7,13.7,327.9,0.6
"794","Crab boat","YAMAHA",266,1979,"Polyester",6.7,14.2,390.6,28.3
"795","Filer","PERKINS",620,1994,"Polyester",7.7,22.4,16838.3,14.3
"796","Filer","BAUDOUIN",496,1976,"Polyester",7,12.5,452,46.3
"797","Trawler","Cummins",585,1981,"Steel",10.3,69.6,1063.5,3.7
"799","Crab boat","BAUDOUIN",186,1934,"Steel",7.4,11.6,460.8,17.7
"801","Trawler","A.B.C.",418,1971,"Wood",6.8,11.6,44.3,0
"802","Filer","BAUDOUIN",388,1978,"Polyester",7.7,13.4,531.7,22.3
"804","Trawler","Volvo",1042,1990,"Steel",17.9,349.8,1329.3,7.5
"805","Trawler","Cummins",381,1973,"Polyester",6.8,12.3,354.5,1
"806","Trawler","Volvo",532,1967,"Polyester",9.4,44,549.5,8.7
"808","Filer","Volvo",312,1979,"Polyester",7.7,8.9,407.7,11.4
"809","Filer","Cummins",376,1977,"Polyester",7.2,7.3,372.2,1.3
"813","Filer","CATERPILLAR",588,1979,"Polyester",8.3,31.8,886.2,20.7
"815","Trawler","Iveco",585,1974,"Wood",9.2,37.1,810,16.2
"816","Trawler","BAUDOUIN",418,1971,"Wood",6.8,11.6,265.9,2.2
"817","Monohull","BAUDOUIN",97,1980,"Polyester",8.5,18.8,177.2,13.3
"818","Filer","Volvo",688,1978,"Polyester",7.7,10.1,8862.3,125.5
"819","Troller","BAUDOUIN",266,1996,"Polyester",5.6,4.3,324.4,15.5
"820","Filer","CATERPILLAR",518,1996,"Polyester",7,12.5,735.6,0.9
"821","Trawler","YAMAHA",1329,1979,"Steel",16,190.2,0,211.7
"822","Filer","BAUDOUIN",195,1971,"Wood",7.1,6.2,162.1,0.9
"823","Trawler","Nanni",425,1976,"Wood",5.5,9.1,230.4,10.2
"824","Filer","DEUTZ",177,1973,"Wood",6.2,10.6,336.8,18
"825","Trawler","POYAUD",798,1981,"Wood",11.6,104.6,857.9,3.9
"826","Filer","Volvo",521,1999,"Polyester",7.7,12.5,797.6,9.3
"827","Troller","SCANIA",567,1978,"Polyester",7.6,12.1,443.1,1.8
"828","Crab boat","Volvo",174,1966,"Wood",5.6,3,106.3,0.4
"829","Trawler","PERKINS",277,1974,"Polyester",6.8,12.4,319,3.1
"830","Troller","SCANIA",292,1977,"Polyester",5.3,5.8,177.2,189.8
"832","Filer","Iveco",239,1998,"Polyester",4.4,2.7,88.6,6.6
"833","Filer","CATERPILLAR",106,1989,"Wood",7.6,9.2,354.5,5.6
"834","Trawler","Cummins",798,1977,"Polyester",10.1,72,815.3,10.6
"835","Trawler","Iveco",1117,1976,"Steel",14.4,122.5,1891.5,18.6
"836","Trawler","Volvo",1418,1981,"Steel",16,209.1,2837.2,65
"838","Crab boat","Cummins",266,1979,"Polyester",6.7,14.2,390.6,1.1
"839","Filer","SUZUKI",443,1996,"Polyester",5.4,4.1,159.5,0.6
"840","Trawler","Cummins",509,1984,"Wood",10.1,34.5,709,7.4
"843","Filer","CATERPILLAR",266,1987,"Polyester",5.9,5.3,265.9,1.2
"849","Filer","BAUDOUIN",532,1997,"Polyester",7.7,13,726.7,8.6
"851","Trawler","Volvo",783,1994,"Steel",16,184.5,0,8.9
"852","Trawler","BAUDOUIN",709,1975,"Steel",11.2,80.6,974.8,6.5
"853","Trawler","Nanni",310,1969,"Wood",6.3,10.8,389.9,16
"855","Crab boat","DAEWOO",230,1972,"Polyester",6.5,4.1,283.6,4.1
"856","Troller","JOHN DEERE",603,1994,"Alluminium alloy",5.4,2.9,319,6.8
"857","Shellfish boat","BONI VALMET",328,1991,"Alluminium alloy",9.8,14,516.7,2.4
"858","Crab boat","Volvo",454,1968,"Polyester",6.3,3.9,132.9,55.2
"860","Trawler","BAUDOUIN",798,1981,"Wood",11.6,104.6,857.9,135.4
"861","Troller","Cummins",160,1999,"Alluminium alloy",4.2,1.2,44.3,0.7
"862","Speedboat","BAUDOUIN",443,1977,"Polyester",7.4,10,407.7,1.1
"863","Trawler","Iveco",1063,1978,"Steel",14.4,167.2,2392.8,4.6
"864","Trawler","Iveco",762,1978,"Steel",10.6,66.3,1352.4,0.8
"865","Fishing vessel","Iveco",266,2001,"Polyester",5.6,3.7,91.3,4.7
"866","Trawler","BAUDOUIN",354,1978,"Wood",7.7,14,810.6,22
"867","Troller","DEUTZ",266,1997,"Polyester",7.7,13,620.4,1.5
"868","Troller","Iveco",328,1999,"Polyester",5.4,4.2,301.3,1.2
"869","Trawler","Cummins",567,1965,"Steel",10.1,37.4,756.6,6.8
"870","Filer","Volvo",106,1989,"Wood",7.6,9.2,354.5,5.1
"872","Filer","Cummins",354,1977,"Polyester",7.7,13.3,407.7,1.7
"873","Filer","Volvo",195,1976,"Polyester",9.2,14.5,567.2,33.8
"875","Trawler","STORK",567,1965,"Steel",10.1,37.4,756.6,9.5
"876","Fishing vessel","BAUDOUIN",160,1994,"Polyester",5.4,4.1,159.5,1.6
"877","Filer","BAUDOUIN",282,1994,"Alluminium alloy",7.6,11.5,514,1.1
"878","Troller","SCANIA",390,1994,"Polyester",5.7,3.8,283.6,1.1
"880","Trawler","BAUDOUIN",798,1980,"Wood",11.5,104.6,850.8,15.7
"881","Trawler","YANMAR",748,1974,"Steel",13.2,102,1036.9,12.8
"883","Trawler","Volvo",319,1977,"Polyester",6.4,8.4,229.7,0
"884","Fishing vessel","BAUDOUIN",266,1960,"Wood",6.1,3.1,141.8,0.8
"885","Crab boat","Volvo",213,1956,"Wood",5.1,5,1028,11.3
"886","Filer","BAUDOUIN",177,1973,"Wood",6.2,10.6,124.1,0.6
"887","Troller","YANMAR",319,1970,"Wood",5.6,6,92.2,1.1
"890","Trawler","CATERPILLAR",762,1978,"Steel",10.6,66.3,1352.4,7.3
"892","Filer","Volvo",142,1995,"Polyester",5.4,4.1,273,0.6
"895","Trawler","BAUDOUIN",349,1969,"Polyester",6.3,7.3,212.7,1.7
"896","Speedboat","BAUDOUIN",354,1979,"Polyester",4.6,8,655.8,3.6
"897","Filer","Cummins",266,1983,"Polyester",4.1,2.1,53.2,5.4
"899","Filer","BAUDOUIN",262,1971,"Wood",6,10.7,124.1,0.8
"900","Fishing vessel","BAUDOUIN",354,1993,"Polyester",6.3,5.3,319,9.7
"901","Trawler","Volvo",266,1976,"Polyester",6.9,12.4,270.2,3.6
"902","Troller","Nanni",199,1995,"Alluminium alloy",5.4,3.9,230.4,8.9
"903","Troller","MWM",128,1952,"Wood",4.9,3.8,53.2,3.6
"904","Fishing vessel","Iveco",177,1995,"Alluminium alloy",6.1,4.9,230.4,5
"907","Trawler","POYAUD",1418,1975,"Steel",15.5,126.3,2162.4,0
"908","Shellfish boat","MERCURY",328,1991,"Alluminium alloy",9.8,14,516.7,7.1
"909","Trawler","POYAUD",709,1979,"Steel",11,99.5,797.6,1.8
"910","Filer","Iveco",603,1978,"Polyester",7.7,9.6,265.9,7.4
"911","Trawler","CATERPILLAR",939,1971,"Steel",13.1,109.8,1063.5,62.9
"914","Fishing vessel","BAUDOUIN",160,1991,"Alluminium alloy",4.5,2.3,65.6,46.7
"916","Fishing vessel","BAUDOUIN",177,1995,"Alluminium alloy",6.1,4.9,32.4,19.4
"917","Shellfish boat","Iveco",71,1992,"Alluminium alloy",4.5,2.3,53.2,1.1
"918","Trawler","BONI VALMET",230,1977,"Polyester",4.7,2.8,150.7,110
"919","Shellfish boat","Iveco",443,2000,"Alluminium alloy",7.3,4.2,124.1,4.9
"920","Troller","PERKINS",204,1975,"Alluminium alloy",5.2,4.1,106.3,2.1
"921","Trawler","WARTSILA",197,1970,"Polyester",6.1,7.1,230.4,1.1
"922","Filer","BONI VALMET",425,1977,"Polyester",6.2,4.2,212.7,47.1
"923","Filer","Volvo",532,1997,"Polyester",7.7,13,726.7,3.8
"925","Filer","BAUDOUIN",266,1971,"Polyester",6.3,4.3,159.5,1.5
"926","Filer","Volvo",390,1980,"Polyester",7.6,9.2,622.1,1.9
"927","Trawler","Volvo",177,1989,"Wood",7.3,9.2,265.9,2
"928","Filer","YAMAHA",581,1992,"Alluminium alloy",6.4,6.2,248.1,17.1
"929","Trawler","Iveco",177,1989,"Wood",7,6.8,230.4,5
"931","Filer","Cummins",581,1992,"Alluminium alloy",6.4,6.2,248.1,2.6
"932","Trawler","BAUDOUIN",620,2000,"Wood",7.7,26.8,1063.5,0
"933","Troller","CATERPILLAR",177,1988,"Polyester",5.1,2.1,132.9,1.8
"934","Filer","YAMAHA",532,1980,"Polyester",6.2,4.9,265.9,0.7
"935","Filer","Volvo",674,1983,"Polyester",7.7,12.3,611.5,6.4
"936","Crab boat","Volvo",106,1973,"Alluminium alloy",4.2,1.9,17.7,1.3
"937","Passenger vessel","CATERPILLAR",496,1967,"Wood",14.3,35.9,265.9,10.6
"938","Trawler","Cummins",762,1978,"Steel",10.6,66.3,1352.4,0
"940","Trawler","YAMAHA",748,1974,"Steel",13.2,102,1036.9,0.7
"941","Trawler","PERKINS",638,1976,"Polyester",7.7,24,584.9,7.2
"942","Trawler","Cummins",383,1975,"Polyester",7.7,22.1,567.2,4.4
"944","Filer","BAUDOUIN",532,1993,"Polyester",7.6,7.8,351.3,0
"945","Troller","YAMAHA",195,1975,"Wood",6.6,10,79.8,0.9
"946","Troller","Iveco",186,1969,"Polyester",5.7,4.6,118.8,2
"947","Fishing vessel","YAMAHA",248,1970,"Polyester",5.5,7,156.9,157.4
"948","Filer","Cummins",213,1978,"Polyester",5.2,4.2,70.9,67.9
"949","Tuna boat","SCANIA",798,1972,"Wood",10,40.2,1063.5,8.2
"950","Filer","YAMAHA",354,1984,"Polyester",7.6,17.4,677.1,10.5
"952","Crab boat","GENERAL MOTORS",168,1972,"Polyester",4.9,2.2,0,0.6
"953","Passenger vessel","CATERPILLAR",354,1987,"Polyester",7.7,36.6,26.6,28.9
"954","Crab boat","YAMAHA",142,1969,"Wood",5.3,4.8,30.1,0.8
"956","Filer","Iveco",248,1968,"Wood",6.9,10.6,407.7,26.7
"959","Filer","PERKINS",213,1996,"Polyester",7,14.3,567.2,1.9
"962","Filer","Iveco",620,1994,"Polyester",7.7,22.4,16838.3,23.9
"963","Trawler","Iveco",886,1981,"Steel",14.6,88.2,2126.9,5.9
"964","Trawler","Volvo",1329,1988,"Steel",14.4,157.7,2431.9,26.2
"971","Filer","YAMAHA",390,1994,"Polyester",5.7,3.8,1079.4,4.6
"972","Passenger vessel","Volvo",257,1983,"Wood",7.1,15.7,239.3,17
"973","Fishing vessel","PERKINS",266,1990,"Polyester",5,3.9,88.3,90.9
"974","Filer","Cummins",620,1987,"Polyester",7.7,16.2,744.4,1.9
"977","Passenger vessel","Volvo",142,1947,"Wood Epoxy",7.1,7.5,124.1,0
"978","Service boat","Cummins",1063,2003,"Polyester",6.9,7.4,448.4,63.2
"980","Filer","Cummins",780,1985,"Polyester",7.7,12.5,584.9,2.8
"982","Trawler","CATERPILLAR",1418,1981,"Steel",16,209.1,2837.2,14.6
"983","Troller","BAUDOUIN",142,1976,"Alluminium alloy",4.9,2,35.4,4.1
"984","Crab boat","SUZUKI",142,1969,"Wood",5.3,4.8,30.1,1.6
"985","Trawler","POYAUD",390,1986,"Polyester",7.7,25.6,886.2,1.1
"987","Trawler","Iveco",663,1974,"Steel",9.9,43,797.6,43.7
"988","Trawler","Cummins",620,1972,"Steel",10.5,33.9,673.5,1.8
"989","Crab boat","Cummins",284,1998,"Alluminium alloy",6.4,6.5,292.5,53.8
"990","Filer","BAUDOUIN",282,1994,"Alluminium alloy",7.6,11.5,514,13.1
"991","Trawler","Iveco",748,1974,"Steel",13.2,102,1036.9,2.1
"992","Trawler","BAUDOUIN",443,2003,"Polyester",7.7,30.7,1223,2.8
"993","Crab boat","Mitsubishi",390,1978,"Wood",7.2,15.3,319,2.3
"994","Fishing vessel","BAUDOUIN",417,1975,"Polyester",5.3,5.8,168.4,0.6
"995","Crab boat","BAUDOUIN",129,1978,"Wood",5.7,4.7,62,0.9
"997","Trawler","BAUDOUIN",567,1965,"Steel",10.1,37.4,756.6,0
"998","Shellfish boat","Iveco",1329,2004,"Alluminium alloy",16,35.9,1063.5,11.9
"999","Passenger vessel","SCANIA",372,1981,"Polyester",13.6,55,815.3,841.9
"1000","Filer","CATERPILLAR",266,1978,"Polyester",6.3,3.1,407.7,30.3
"1002","Crab boat","Iveco",186,1934,"Steel",7.4,11.6,460.8,10
"1004","Trawler","Iveco",230,1966,"Steel",6.8,12.3,278.3,2.3
"1006","Filer","YAMAHA",89,1973,"Polyester",4,2.8,35.4,2.3
"1007","Filer","POYAUD",89,1973,"Polyester",4,2.8,354.5,0
"1008","Trawler","Iveco",663,1974,"Steel",9.9,43,797.6,2.2
"1010","Filer","BAUDOUIN",798,1975,"Polyester",6.2,6.2,185.2,8.1
"1011","Dredger","CATERPILLAR",213,1969,"Polyester",6.4,9.5,351.3,10.6
"1012","Trawler","YANMAR",367,1983,"Polyester",7.6,16.8,460.8,0.9
"1013","Passenger vessel","Cummins",399,1985,"Wood Epoxy",8.7,26.8,265.9,7
"1014","Troller","Iveco",128,1952,"Wood",4.9,3.8,53.2,1.5
"1018","Filer","Iveco",588,1979,"Polyester",8.3,31.8,886.2,4.9
"1020","Filer","SUZUKI",603,1997,"Polyester",7.6,11.3,620.4,1.9
"1021","Troller","YAMAHA",230,1974,"Polyester",6.1,9.5,177.2,3.7
"1022","Troller","BAUDOUIN",133,1968,"Wood",4.9,2.7,97.5,6.3
"1023","Crab boat","BAUDOUIN",404,1978,"Polyester",5.8,3.8,230.4,0
"1025","Crab boat","Mitsubishi",496,1967,"Wood",12.3,42.1,595.5,9.2
"1026","Filer","BAUDOUIN",230,1976,"Polyester",5.3,5.8,159.5,0.6
"1027","Filer","BAUDOUIN",275,1979,"Polyester",7.2,11,389.9,7.7
"1029","Crab boat","CATERPILLAR",390,1986,"Polyester",7.6,16.2,459.4,4.5
"1030","Trawler","Iveco",177,1962,"Wood",6.7,11.5,203.8,0.7
"1034","Trawler","MAN",532,1965,"Wood",10,42.8,319,1.2
"1035","Filer","CATERPILLAR",603,1978,"Polyester",7.7,9.6,265.9,9.1
"1036","Trawler","Iveco",1076,1993,"Steel",15.4,154.4,1196.4,5.8
"1037","Trawler","BAUDOUIN",425,1989,"Polyester",7.6,26.9,1276.2,5.8
"1038","Filer","Volvo",443,1977,"Polyester",7.7,13.3,319,0.5
"1039","Filer","Cummins",186,1979,"Steel",7.6,13.3,584.9,0.5
"1040","Filer","BAUDOUIN",195,1997,"Steel",7.2,20.5,797.6,0
"1042","Trawler","CATERPILLAR",1778,2001,"Steel",15.4,215.4,4431.1,16.1
"1044","Trawler","Cummins",390,1980,"Steel",10.2,41.6,810.6,3.7
"1046","Trawler","Volvo",620,1975,"Wood",8.4,23.2,354.5,0.9
"1047","Trawler","CATERPILLAR",177,1970,"Wood",5.3,4.5,177.2,1.1
"1050","Filer","SCANIA",248,1992,"Polyester",7.6,13.6,425.4,4
"1052","Filer","PERKINS",106,1977,"Wood",4.6,4.6,97.5,1.4
"1053","Speedboat","BAUDOUIN",443,1973,"Polyester",7.1,8.3,177.2,3.1
"1054","Filer","BAUDOUIN",388,1978,"Polyester",7.7,13.4,531.7,49
"1055","Trawler","BAUDOUIN",638,1978,"Polyester",10.7,85.4,1107.8,0
"1056","Fishing vessel","HONDA",177,1994,"Polyester",4.9,2.7,35.4,8.9
"1057","Filer","BAUDOUIN",390,1976,"Polyester",7.6,9.6,354.5,1.1
"1058","Trawler","Iveco",670,1973,"Wood",10.2,51.5,974.8,2
"1059","Trawler","MAN",1042,1990,"Steel",17.9,349.8,1329.3,12.9
"1061","Crab boat","CATERPILLAR",142,1981,"Alluminium alloy",4.2,1.6,44.3,4.8
"1062","Troller","Volvo",191,1965,"Polyester",5.5,3,108.1,5.9
"1063","Trawler","YAMAHA",620,1973,"Wood",9.9,45.4,620.4,1.3
"1065","Trawler","MAN",470,1962,"Wood",9.8,44.4,443.1,11.9
"1066","Trawler","YAMAHA",798,1977,"Polyester",10.1,72,815.3,3.5
"1070","Trawler","BAUDOUIN",188,1969,"Wood",6.3,10.2,2215.6,397
"1072","Filer","Nanni",266,1976,"Polyester",7.1,7.3,283.6,21.5
"1073","Filer","Iveco",310,1971,"Polyester",6.2,7.6,265.9,10.6
"1074","Crab boat","BAUDOUIN",319,1979,"Alluminium alloy",6.7,3.9,177.2,0.7
"1075","Filer","Cummins",354,1984,"Polyester",7.6,17.4,677.1,26.8
"1076","Filer","Iveco",390,1980,"Polyester",7.6,9.2,622.1,2.4
"1077","Fishing vessel","CATERPILLAR",301,1957,"Polyester",5.8,4.7,111.7,6.4
"1078","Trawler","BAUDOUIN",383,1975,"Polyester",7.7,22.1,567.2,1.9
"1079","Trawler","BAUDOUIN",585,1981,"Steel",10.3,69.6,1063.5,5.5
"1082","Filer","CATERPILLAR",275,1979,"Polyester",7.2,11,389.9,33
"1084","Filer","Cummins",532,1982,"Polyester",6,5.8,212.7,0.4
"1087","Fishing vessel","BAUDOUIN",417,1975,"Polyester",5.3,5.8,168.4,4.7
"1088","Troller","CATERPILLAR",266,1993,"Polyester",5.4,4,265.9,1.2
"1089","Trawler","CATERPILLAR",585,1970,"Wood",6.4,3.1,0,1
"1090","Fishing vessel","DEUTZ",181,1993,"Polyester",5.1,2.3,81.5,5.9
"1091","Dredger","PERKINS",195,1978,"Wood",6.3,9.2,248.1,0.8
"1092","Fishing vessel","BAUDOUIN",204,1987,"Polyester",4.6,3.8,26.6,0.6
"1094","Crab boat","BAUDOUIN",115,1980,"Polyester",4.9,4.1,106.3,2.2
"1096","Troller","YAMAHA",709,1995,"Polyester",10.9,53.3,886.2,10.6
"1097","Crab boat","MAN",310,1974,"Wood",6.2,5.6,221.6,5.7
"1098","Crab boat","Cummins",278,1981,"Polyester",5.8,8,245.3,4.6
"1099","Fishing vessel","Cummins",301,1957,"Polyester",5.8,4.7,111.7,1.9
"1100","Trawler","POYAUD",638,1976,"Wood",11.4,76,974.8,10.8
"1101","Trawler","Iveco",1418,1975,"Steel",15.5,126.3,2162.4,10
"1102","Crab boat","CATERPILLAR",532,1978,"Polyester",7.7,9.2,354.5,1.3
"1105","Filer","Mitsubishi",496,1996,"Polyester",7.7,12.6,709,11.7
"1106","Crab boat","YAMAHA",354,2001,"Alluminium alloy",5.1,4.3,88.6,27.2
"1108","Troller","Cummins",780,1997,"Polyester",11.9,71.3,1152.1,19.5
"1110","Trawler","Volvo",230,1972,"Polyester",6.5,4.1,230.4,1.2
"1111","Trawler","CATERPILLAR",177,1972,"Polyester",5.6,6.8,159.5,1.5
"1112","Troller","HONDA",301,1979,"Polyester",5.9,8.2,230.4,12.4
"1117","Trawler","Iveco",431,1996,"Polyester",7.7,25.4,1423.6,5.6
"1118","Filer","SCANIA",160,1995,"Polyester",4.4,1.1,79.8,4.2
"1119","Filer","CATERPILLAR",195,1976,"Polyester",9.2,14.5,567.2,27.8
"1120","Fishing vessel","SCANIA",160,1991,"Alluminium alloy",4.5,2.3,65.6,4
"1121","Trawler","Volvo",390,1986,"Polyester",7.7,25.6,1215.9,1.9
"1122","Crab boat","CATERPILLAR",677,1978,"Polyester",9.6,40,886.2,1
"1123","Filer","Iveco",385,1961,"Wood",6.4,10.2,297.8,0.6
"1124","Filer","CATERPILLAR",385,1961,"Wood",6.4,10.2,297.8,0.9
"1127","Trawler","Iveco",390,1986,"Polyester",7.7,25.6,1215.9,3
"1130","Filer","Cummins",195,1997,"Steel",7.2,20.5,797.6,7.1
"1131","Filer","YAMAHA",319,1978,"Polyester",6.6,10.1,319,1.2
"1132","Filer","Iveco",390,1981,"Polyester",7.6,9.4,531.7,2.1
"1135","Filer","Iveco",404,1982,"Polyester",7.7,20.8,505.1,1.9
"1136","Crab boat","Iveco",677,1978,"Polyester",9.6,40,886.2,2.2
"1137","Trawler","BONI VALMET",390,1980,"Steel",10.2,41.6,810.6,6.5
"1138","Trawler","CATERPILLAR",1087,2005,"Steel",16,215.9,7089.8,53.2
"1139","Filer","Volvo",1063,1995,"Alluminium alloy",7.2,10.9,531.7,0.8
"1140","Filer","Cummins",372,1976,"Polyester",7.5,8.9,270.2,2.1
"1141","Fishing vessel","Volvo",417,1975,"Polyester",5.3,5.8,168.4,1.5
"1144","Trawler","Cummins",798,1977,"Steel",13.3,115.9,1063.5,1.5
"1145","Trawler","BAUDOUIN",886,1981,"Steel",14.6,88.2,2126.9,119.6
"1146","Filer","BAUDOUIN",204,1990,"Polyester",3.9,2.1,97.5,9.4
"1147","Filer","BAUDOUIN",390,1973,"Polyester",6.9,5.9,354.5,4.2
"1149","Trawler","Cummins",798,1977,"Steel",13.3,115.9,1063.5,1
"1152","Fishing vessel","PERKINS",239,1980,"Polyester",4.6,2.5,97.5,3.4
"1153","Trawler","Volvo",1581,2000,"Steel",16,185.4,3544.9,14.3
"1154","Trawler","Cummins",762,1978,"Steel",10.6,66.3,1352.4,3.7
"1155","Fishing vessel","YAMAHA",230,1989,"Polyester",6.3,9.8,265.9,0.9
"1156","Trawler","Iveco",431,1996,"Polyester",7.7,25.4,1423.6,13.6
"1157","Trawler","BAUDOUIN",748,1974,"Steel",13.2,102,1036.9,7.5
"1161","Filer","Cummins",532,1978,"Polyester",7.7,24,531.7,2.6
"1162","Fishing vessel","Cummins",160,1991,"Alluminium alloy",4.5,2.3,65.6,14.2
"1163","Filer","BAUDOUIN",532,1978,"Polyester",7.7,24,531.7,0.8
"1164","Fishing vessel","Iveco",369,1984,"Polyester",5.6,4.1,37.2,0.4
"1165","Troller","BAUDOUIN",94,1968,"Polyester",4.3,1.4,62,39
"1166","Speedboat","HONDA",266,1993,"Alluminium alloy",6.4,2.7,319,33.6
"1167","Trawler","CATERPILLAR",709,1979,"Steel",11,99.5,797.6,2.7
"1168","Filer","Mitsubishi",266,1983,"Polyester",4.1,2.1,53.2,7
"1169","Trawler","SCANIA",709,1978,"Steel",11.8,56.4,1063.5,1.5
"1171","Filer","CATERPILLAR",521,1999,"Polyester",7.7,12.5,797.6,8.7
"1173","Trawler","BONI VALMET",509,1984,"Wood",10.1,34.5,709,2.1
"1175","Trawler","CATERPILLAR",266,1976,"Polyester",6.9,12.4,270.2,1.3
"1176","Trawler","WARTSILA",261,1970,"Wood",6.7,13.5,443.1,5.8
"1177","Filer","Volvo",354,1977,"Polyester",7.7,13.3,319,27.1
"1178","Filer","Iveco",397,1980,"Polyester",7.7,7.8,407.7,24.2
"1180","Trawler","BAUDOUIN",585,1975,"Wood",9.9,33.6,407.7,4.8
"1181","Crab boat","BAUDOUIN",319,1974,"Polyester",6.4,6.9,265.9,1.3
"1182","Shellfish boat","Nanni",354,2004,"Alluminium alloy",7.7,6.4,127,4.8
"1183","Trawler","YAMAHA",1087,2005,"Steel",16,215.9,7089.8,8
"1184","Crab boat","CATERPILLAR",620,1997,"Polyester",5.7,4.5,372.2,1.2
"1185","Crab boat","CATERPILLAR",390,1977,"Polyester",6.9,9.9,248.1,0.7
"1186","Trawler","BAUDOUIN",532,1965,"Wood",10,42.8,319,2.5
"1187","Trawler","Cummins",188,1967,"Wood",6.2,8.1,162.1,8.3
"1189","Speedboat","Volvo",886,1986,"Alluminium alloy",14.9,98.4,797.6,39.4
"1190","Tuna boat","BAUDOUIN",798,1972,"Wood",10,40.2,1063.5,9.6
"1191","Filer","CATERPILLAR",342,1994,"Polyester",11.4,19.6,425.4,2.3
"1192","Shellfish boat","MAN",177,1971,"Alluminium alloy",4.6,3.4,39,8.7
"1194","Trawler","PERKINS",620,1973,"Wood",9.9,45.4,620.4,1
"1195","Trawler","Iveco",939,1971,"Steel",13.1,109.8,1063.5,9.9
"1196","Crab boat","Nanni",532,1995,"Polyester",7.7,18.9,833.1,1.9
"1197","Troller","CATERPILLAR",266,1997,"Polyester",7.7,13,620.4,5.5
"1199","Crab boat","YAMAHA",218,1970,"Polyester",5.8,5.2,177.2,14.3
"1202","Trawler","SCANIA",780,1974,"Steel",11.2,44.1,974.8,1.9
"1203","Speedboat","SUZUKI",443,1999,"Alluminium alloy",4.6,3.2,97,25.4
"1204","Troller","SCANIA",266,1991,"Alluminium alloy",4.9,2.2,70.9,69.3
"1205","Trawler","HONDA",620,1973,"Wood",9.9,45.4,620.4,21.3
"1206","Troller","Cummins",567,1978,"Polyester",7.6,12.1,443.1,16.3
"1207","Filer","SUZUKI",354,1977,"Polyester",7.7,13.3,319,12
"1208","Trawler","HONDA",213,1955,"Wood",6.3,6.4,177.2,2.7
"1209","Speedboat","YANMAR",443,1977,"Polyester",7.4,10,407.7,22.9
"1210","Filer","CATERPILLAR",354,1984,"Polyester",7.7,16.4,886.2,5.8
"1211","Crab boat","BAUDOUIN",390,2005,"Alluminium alloy",6.4,7.6,567.2,2.7
"1212","Trawler","Volvo",266,1977,"Polyester",6.1,8.3,239.3,1.9
"1213","Crab boat","BAUDOUIN",97,1971,"Wood",4.3,4.7,106.3,4.7
"1214","Fishing vessel","Iveco",115,1940,"Wood",4.2,2.7,27,3.5
"1216","Trawler","CATERPILLAR",748,1974,"Steel",13.2,102,1036.9,8.6
"1217","Crab boat","BAUDOUIN",97,1971,"Wood",4.3,4.7,106.3,3.9
"1218","Trawler","Cummins",319,1995,"Wood",7.3,15.3,443.1,0.7
"1220","Trawler","BAUDOUIN",1418,1981,"Steel",16,209.1,2837.2,27.5
"1221","Trawler","Cummins",585,1974,"Wood",9.2,37.1,538.8,12.4
"1222","Trawler","PERKINS",532,1965,"Wood",10,42.8,319,11
"1224","Trawler","Iveco",213,1969,"Wood",6.3,10.8,443.1,26.6
"1226","Filer","BAUDOUIN",434,1996,"Polyester",7.7,13.3,620.4,3.2
"1228","Trawler","BAUDOUIN",425,1989,"Polyester",7.6,26.9,1152.1,19.9
"1229","Filer","PERKINS",266,1995,"Alluminium alloy",5.2,4.4,177.2,13.6
"1230","Trawler","DAEWOO",177,1972,"Polyester",5.6,6.8,159.5,0.5
"1231","Fishing vessel","Nanni",301,1957,"Polyester",5.8,4.7,111.7,3.7
"1232","Trawler","BAUDOUIN",177,1996,"Polyester",7.5,15.3,531.7,3.9
"1233","Speedboat","BAUDOUIN",443,1977,"Polyester",7.4,10,407.7,2.9
"1234","Crab boat","PERKINS",266,1996,"Alluminium alloy",5.1,4.3,195,30.8
"1236","Filer","SUZUKI",195,1972,"Polyester",6.1,8.3,177.2,3.2
"1237","Crab boat","Cummins",129,1978,"Wood",5.7,4.7,88.6,1.7
"1239","Trawler","SCANIA",585,1981,"Steel",10.3,69.6,1063.5,1.1
"1240","Trawler","Iveco",851,1981,"Steel",10.2,78.6,1063.5,8.6
"1241","Troller","Volvo",230,1974,"Polyester",6.1,9.5,177.2,2.7
"1243","Crab boat","BAUDOUIN",266,1996,"Alluminium alloy",5.1,4.3,195,0.7
"1244","Filer","Volvo",266,1976,"Polyester",7.1,7.3,283.6,7.3
"1245","Trawler","Iveco",1063,1976,"Steel",16,197.7,1891.5,21.3
"1249","Shellfish boat","BAUDOUIN",674,1996,"Alluminium alloy",15.4,45.8,443.1,62
"1251","Filer","YAMAHA",532,1982,"Polyester",6,5.8,212.7,214.5
"1252","Crab boat","Cummins",266,2001,"Alluminium alloy",7.7,9,620.4,5.8
"1253","Filer","BAUDOUIN",106,1989,"Wood",7.6,9.2,354.5,3.5
"1255","Speedboat","Volvo",142,1976,"Alluminium alloy",4.8,3.5,845.5,9.7
"1256","Trawler","MERCURY",532,1965,"Wood",10,42.8,319,8.4
"1257","Trawler","Volvo",585,1981,"Steel",10.3,69.6,1063.5,8.9
"1258","Filer","Volvo",744,1977,"Polyester",13,74.6,945.8,8.9
"1260","Trawler","YAMAHA",798,1977,"Polyester",10.1,72,815.3,12.4
"1261","Trawler","CATERPILLAR",780,1971,"Polyester",10.9,63.9,531.7,69.1
"1263","Crab boat","HONDA",310,1974,"Alluminium alloy",6.3,9.3,248.1,56.7
"1265","Trawler","Iveco",762,1978,"Steel",10.6,66.3,1352.4,5.3
"1266","Trawler","BAUDOUIN",709,1979,"Steel",11,99.5,797.6,26.6
"1267","Troller","YAMAHA",307,2005,"Polyester",7.3,10.6,744.4,36.3
"1268","Trawler","PERKINS",1418,1975,"Steel",15.5,126.3,2126.9,54.9
"1269","Trawler","Cummins",177,1972,"Polyester",5.6,6.8,159.5,2.7
"1270","Filer","Cummins",222,1973,"Polyester",4.9,3.1,106.3,0.4
"1271","Fishing vessel","YAMAHA",124,1972,"Polyester",3.8,2.2,26.6,1.4
"1273","Filer","BAUDOUIN",354,1981,"Polyester",7.7,15.5,531.7,8.9
